<?xml version="1.0" encoding="UTF-8" standalone="no"?>
<!-- Created with Inkscape (http://www.inkscape.org/) -->

<svg
   xmlns:dc="http://purl.org/dc/elements/1.1/"
   xmlns:cc="http://creativecommons.org/ns#"
   xmlns:rdf="http://www.w3.org/1999/02/22-rdf-syntax-ns#"
   xmlns:svg="http://www.w3.org/2000/svg"
   xmlns="http://www.w3.org/2000/svg"
   xmlns:xlink="http://www.w3.org/1999/xlink"
   xmlns:sodipodi="http://sodipodi.sourceforge.net/DTD/sodipodi-0.dtd"
   xmlns:inkscape="http://www.inkscape.org/namespaces/inkscape"
   width="210mm"
   height="297mm"
   viewBox="0 0 210 297"
   version="1.1"
   id="svg8"
   inkscape:version="0.92.4 (5da689c313, 2019-01-14)"
   sodipodi:docname="af-personal.svg"
   inkscape:export-filename="/home/marc/Daten.2020/code/HackersCardgame7/TODO/slave-font/sklavenVertrag20200209.png"
   inkscape:export-xdpi="241.89999"
   inkscape:export-ydpi="241.89999">
  <defs
     id="defs2" />
  <sodipodi:namedview
     id="base"
     pagecolor="#ffffff"
     bordercolor="#666666"
     borderopacity="1.0"
     inkscape:pageopacity="0.0"
     inkscape:pageshadow="2"
     inkscape:zoom="9.3529912"
     inkscape:cx="258.7976"
     inkscape:cy="274.33001"
     inkscape:document-units="mm"
     inkscape:current-layer="layer5"
     showgrid="false"
     inkscape:window-width="1920"
     inkscape:window-height="1016"
     inkscape:window-x="0"
     inkscape:window-y="27"
     inkscape:window-maximized="1" />
  <metadata
     id="metadata5">
    <rdf:RDF>
      <cc:Work
         rdf:about="">
        <dc:format>image/svg+xml</dc:format>
        <dc:type
           rdf:resource="http://purl.org/dc/dcmitype/StillImage" />
        <dc:title />
      </cc:Work>
    </rdf:RDF>
  </metadata>
  <g
     inkscape:label="Layer 1"
     inkscape:groupmode="layer"
     id="layer1"
     style="display:inline">
    <path
       inkscape:export-ydpi="288.84"
       inkscape:export-xdpi="288.84"
       style="fill:none;stroke:#ff00ff;stroke-width:0.35474253;stroke-linecap:butt;stroke-linejoin:miter;stroke-miterlimit:4;stroke-dasharray:none;stroke-opacity:1"
       d="m 43.452629,12.599816 c 0.135334,1.295256 0.03055,2.637442 0.03055,3.878172"
       id="path6868-4-8-6-3"
       inkscape:connector-curvature="0"
       sodipodi:nodetypes="cc" />
    <path
       inkscape:export-ydpi="288.84"
       inkscape:export-xdpi="288.84"
       style="fill:none;stroke:#ff00ff;stroke-width:0.35474253;stroke-linecap:butt;stroke-linejoin:miter;stroke-miterlimit:4;stroke-dasharray:none;stroke-opacity:1"
       d="m 43.340048,14.273946 1.471987,0.05888"
       id="path16566-5"
       inkscape:connector-curvature="0" />
    <path
       inkscape:export-ydpi="288.84"
       inkscape:export-xdpi="288.84"
       style="fill:none;stroke:#ff00ff;stroke-width:0.41494876;stroke-linecap:butt;stroke-linejoin:miter;stroke-miterlimit:4;stroke-dasharray:none;stroke-opacity:1"
       d="m 42.229421,12.5612 3.784528,0.145489"
       id="path16566-4"
       inkscape:connector-curvature="0" />
    <path
       inkscape:export-ydpi="288.84"
       inkscape:export-xdpi="288.84"
       style="fill:none;stroke:#ff00ff;stroke-width:0.35474253;stroke-linecap:butt;stroke-linejoin:miter;stroke-miterlimit:4;stroke-dasharray:none;stroke-opacity:1"
       d="m 46.407874,12.637714 c 0.135334,1.295256 0.03055,2.637442 0.03055,3.878172"
       id="path6868-4-8-6-3-4"
       inkscape:connector-curvature="0"
       sodipodi:nodetypes="cc" />
    <path
       inkscape:export-ydpi="288.84"
       inkscape:export-xdpi="288.84"
       style="fill:none;stroke:#0000ff;stroke-width:0.35474253;stroke-linecap:butt;stroke-linejoin:miter;stroke-miterlimit:4;stroke-dasharray:none;stroke-opacity:1"
       d="m 49.332372,14.657556 c 0.473532,1.643919 -1.414359,1.652863 -1.653309,0.709327 -0.30237,-1.193957 1.365271,-1.717641 1.681644,-0.708578"
       id="path6866-4-3-7-3-2-2-5-1-9-2"
       inkscape:connector-curvature="0"
       sodipodi:nodetypes="csc" />
    <g
       inkscape:export-ydpi="288.84"
       inkscape:export-xdpi="288.84"
       transform="matrix(0.22171409,0,0,-0.22171409,-27.230016,91.959394)"
       id="g14997-3"
       style="stroke:#ff0000;stroke-width:1.60000002;stroke-miterlimit:4;stroke-dasharray:none;stroke-opacity:1">
      <path
         sodipodi:nodetypes="cc"
         inkscape:connector-curvature="0"
         id="path6874-2-3-5-5-0-4-6-2-7-6"
         d="m 349.66598,350.10418 c 8.25168,-4.9954 10.25471,9.38853 0.0252,6.35697"
         style="fill:none;stroke:#ff0000;stroke-width:1.60000002;stroke-linecap:butt;stroke-linejoin:miter;stroke-miterlimit:4;stroke-dasharray:none;stroke-opacity:1" />
      <path
         sodipodi:nodetypes="cc"
         inkscape:connector-curvature="0"
         id="path6872-3-1-1-6-0-2-0-0-6-91"
         d="m 349.26877,340.43383 c 0.52513,5.03353 0.0988,11.81635 0.28835,16.03133"
         style="fill:none;stroke:#ff0000;stroke-width:1.60000002;stroke-linecap:butt;stroke-linejoin:miter;stroke-miterlimit:4;stroke-dasharray:none;stroke-opacity:1" />
    </g>
    <g
       inkscape:export-ydpi="288.84"
       inkscape:export-xdpi="288.84"
       transform="matrix(0.22171409,0,0,-0.22171409,-25.22811,93.608034)"
       id="g14997-51"
       style="stroke:#ff00ff;stroke-width:1.60000002;stroke-miterlimit:4;stroke-dasharray:none;stroke-opacity:1">
      <path
         sodipodi:nodetypes="cc"
         inkscape:connector-curvature="0"
         id="path6874-2-3-5-5-0-4-6-2-7-66"
         d="m 349.66598,350.10418 c 8.25168,-4.9954 10.25471,9.38853 0.0252,6.35697"
         style="fill:none;stroke:#ff00ff;stroke-width:1.60000002;stroke-linecap:butt;stroke-linejoin:miter;stroke-miterlimit:4;stroke-dasharray:none;stroke-opacity:1" />
      <path
         sodipodi:nodetypes="cc"
         inkscape:connector-curvature="0"
         id="path6872-3-1-1-6-0-2-0-0-6-7"
         d="m 349.26877,340.43383 c 0.52513,5.03353 0.0988,11.81635 0.28835,16.03133"
         style="fill:none;stroke:#ff00ff;stroke-width:1.60000002;stroke-linecap:butt;stroke-linejoin:miter;stroke-miterlimit:4;stroke-dasharray:none;stroke-opacity:1" />
    </g>
    <path
       inkscape:export-ydpi="288.84"
       inkscape:export-xdpi="288.84"
       style="fill:none;stroke:#ffa84c;stroke-width:0.35474253;stroke-linecap:butt;stroke-linejoin:miter;stroke-miterlimit:4;stroke-dasharray:none;stroke-opacity:1"
       d="m 54.374223,13.46782 c -0.06158,0.102222 -0.541159,1.580079 0.312241,1.790264 0.755005,0.185954 0.808147,-0.896357 0.979295,-1.540458 0.02357,-0.08871 0,2.492173 0,2.747846 0,1.87272 -0.303908,3.36427 -1.348305,3.122554 -1.995804,-0.461911 -1.837749,-2.539678 -0.581903,-2.539678"
       id="path16347-1"
       inkscape:connector-curvature="0"
       sodipodi:nodetypes="cssssc" />
    <path
       inkscape:export-ydpi="288.84"
       inkscape:export-xdpi="288.84"
       style="fill:none;stroke:#000000;stroke-width:0.31042546;stroke-linecap:butt;stroke-linejoin:miter;stroke-miterlimit:4;stroke-dasharray:none;stroke-opacity:1"
       d="m 55.7479,21.789123 c 0.556459,-1.208005 0.838884,-1.533066 1.375271,-2.350889 1.22524,-1.868107 1.065188,0.574685 1.578389,2.318264"
       id="path6946-8"
       inkscape:connector-curvature="0"
       sodipodi:nodetypes="csc" />
    <path
       inkscape:export-ydpi="288.84"
       inkscape:export-xdpi="288.84"
       style="fill:none;stroke:#000000;stroke-width:0.31042546;stroke-linecap:butt;stroke-linejoin:miter;stroke-miterlimit:4;stroke-dasharray:none;stroke-opacity:1"
       d="m 55.967359,19.989725 c 0.806933,-0.208228 2.101402,-0.513241 3.246096,-0.07107"
       id="path6948-2"
       inkscape:connector-curvature="0"
       sodipodi:nodetypes="cc" />
    <path
       inkscape:export-ydpi="288.84"
       inkscape:export-xdpi="288.84"
       style="fill:none;stroke:#ff00ff;stroke-width:0.31042546;stroke-linecap:butt;stroke-linejoin:miter;stroke-miterlimit:4;stroke-dasharray:none;stroke-opacity:1"
       d="m 64.689494,19.797767 c 0.118429,0.595405 0.02675,1.21238 0.02675,1.782719"
       id="path6868-4-2-3-2-6"
       inkscape:connector-curvature="0"
       sodipodi:nodetypes="cc" />
    <path
       inkscape:export-ydpi="288.84"
       inkscape:export-xdpi="288.84"
       style="fill:none;stroke:#ff0000;stroke-width:0.31042546;stroke-linecap:butt;stroke-linejoin:miter;stroke-miterlimit:4;stroke-dasharray:none;stroke-opacity:1"
       d="m 64.752968,19.179068 c -1.57325,-1.700414 1.746082,-1.398773 0,0 z"
       id="path6870-3-9-3-3-4"
       inkscape:connector-curvature="0"
       sodipodi:nodetypes="cc" />
    <path
       inkscape:export-ydpi="288.84"
       inkscape:export-xdpi="288.84"
       style="fill:none;stroke:#00ff00;stroke-width:0.31042546;stroke-linecap:butt;stroke-linejoin:miter;stroke-miterlimit:4;stroke-dasharray:none;stroke-opacity:1"
       d="m 65.890909,18.251604 c 0.07407,1.139116 -0.337044,3.773143 0.715159,3.128314"
       id="path6872-3-1-1-6-0-8-72-3"
       inkscape:connector-curvature="0"
       sodipodi:nodetypes="cc" />
    <path
       inkscape:export-ydpi="288.84"
       inkscape:export-xdpi="288.84"
       style="fill:none;stroke:#ff0000;stroke-width:0.31042546;stroke-linecap:butt;stroke-linejoin:miter;stroke-miterlimit:4;stroke-dasharray:none;stroke-opacity:1"
       d="m 66.742654,20.078592 c 1.298749,-0.924929 1.835,1.210521 0.498936,1.349503 -0.531856,0.05533 -0.662605,-0.900789 -0.22716,-0.975644 0.932965,-0.160376 1.189699,1.752664 1.05878,0.607656"
       id="path6908-3-0-9-8"
       inkscape:connector-curvature="0"
       sodipodi:nodetypes="cssc" />
    <path
       inkscape:export-ydpi="288.84"
       inkscape:export-xdpi="288.84"
       style="fill:none;stroke:#0000ff;stroke-width:0.31042546;stroke-linecap:butt;stroke-linejoin:miter;stroke-miterlimit:4;stroke-dasharray:none;stroke-opacity:1"
       d="m 70.022008,20.471282 c 0.156351,-0.408194 -0.314,-0.798568 -0.654644,-0.515322 -1.152742,0.958478 0.42509,0.43362 0.637204,1.099255 0.195365,0.613058 -0.918335,0.596731 -1.19089,0.09406"
       id="path6916-9-9-8-8-8-1-8-9-3-6-5"
       inkscape:connector-curvature="0"
       sodipodi:nodetypes="cssc" />
    <g
       inkscape:export-ydpi="288.84"
       inkscape:export-xdpi="288.84"
       id="g4706-0-7"
       transform="matrix(-0.18436138,0,0,0.13853032,105.47274,-50.046979)"
       style="stroke:#ff00ff;stroke-width:1.47362292;stroke-miterlimit:4;stroke-dasharray:none;stroke-opacity:1">
      <path
         inkscape:connector-curvature="0"
         id="path6872-5-4-2"
         d="m 227.09605,516.0652 c 1.18143,-3.0553 0.22232,-7.1724 0.64873,-9.73085"
         style="fill:none;stroke:#ff00ff;stroke-width:1.47362292;stroke-linecap:butt;stroke-linejoin:miter;stroke-miterlimit:4;stroke-dasharray:none;stroke-opacity:1" />
      <path
         inkscape:connector-curvature="0"
         id="path6874-4-1-0"
         d="m 227.14839,514.26552 c 10.07665,4.98012 8.72851,-1.87084 7.65917,-8.28691"
         style="fill:none;stroke:#ff00ff;stroke-width:1.47362292;stroke-linecap:butt;stroke-linejoin:miter;stroke-miterlimit:4;stroke-dasharray:none;stroke-opacity:1"
         sodipodi:nodetypes="cc" />
    </g>
    <g
       inkscape:export-ydpi="288.84"
       inkscape:export-xdpi="288.84"
       transform="matrix(-0.18436138,0,0,0.13853032,105.47274,-50.046979)"
       id="g7073-8-7"
       style="stroke:#ffff00;stroke-width:1.47362292;stroke-miterlimit:4;stroke-dasharray:none;stroke-opacity:1">
      <path
         style="fill:none;stroke:#ffff00;stroke-width:1.47362292;stroke-linecap:butt;stroke-linejoin:miter;stroke-miterlimit:4;stroke-dasharray:none;stroke-opacity:1"
         d="m 227.09605,516.0652 c 1.18143,-3.0553 0.22232,-7.1724 0.64873,-9.73085"
         id="path7075-62-7"
         inkscape:connector-curvature="0" />
      <path
         sodipodi:nodetypes="cc"
         style="fill:none;stroke:#ffff00;stroke-width:1.47362292;stroke-linecap:butt;stroke-linejoin:miter;stroke-miterlimit:4;stroke-dasharray:none;stroke-opacity:1"
         d="m 227.14839,514.26552 c 10.07665,4.98012 8.72851,-1.87084 7.65917,-8.28691"
         id="path7077-0-6"
         inkscape:connector-curvature="0" />
    </g>
    <g
       inkscape:export-ydpi="288.84"
       inkscape:export-xdpi="288.84"
       transform="matrix(-0.23557771,0,0,-0.23557771,143.65527,104.05184)"
       id="g14997-23"
       style="stroke:#ffa84c;stroke-width:1.31772006;stroke-miterlimit:4;stroke-dasharray:none;stroke-opacity:1">
      <path
         sodipodi:nodetypes="cc"
         inkscape:connector-curvature="0"
         id="path6874-2-3-5-5-0-4-6-2-7-9"
         d="m 349.66598,350.10418 c 8.25168,-4.9954 10.25471,9.38853 0.0252,6.35697"
         style="fill:none;stroke:#ffa84c;stroke-width:1.31772006;stroke-linecap:butt;stroke-linejoin:miter;stroke-miterlimit:4;stroke-dasharray:none;stroke-opacity:1" />
      <path
         sodipodi:nodetypes="cc"
         inkscape:connector-curvature="0"
         id="path6872-3-1-1-6-0-2-0-0-6-94"
         d="m 349.26877,340.43383 c 0.52513,5.03353 0.0988,11.81635 0.28835,16.03133"
         style="fill:none;stroke:#ffa84c;stroke-width:1.31772006;stroke-linecap:butt;stroke-linejoin:miter;stroke-miterlimit:4;stroke-dasharray:none;stroke-opacity:1" />
    </g>
    <image
       width="168.17879"
       height="132.02036"
       xlink:href="data:image/jpeg;base64,/9j/4AAQSkZJRgABAQAAAQABAAD/2wBDAAgGBgcGBQgHBwcJCQgKDBQNDAsLDBkSEw8UHRofHh0a HBwgJC4nICIsIxwcKDcpLDAxNDQ0Hyc5PTgyPC4zNDL/2wBDAQkJCQwLDBgNDRgyIRwhMjIyMjIy MjIyMjIyMjIyMjIyMjIyMjIyMjIyMjIyMjIyMjIyMjIyMjIyMjIyMjIyMjL/wAARCAHXAlgDASIA AhEBAxEB/8QAHwAAAQUBAQEBAQEAAAAAAAAAAAECAwQFBgcICQoL/8QAtRAAAgEDAwIEAwUFBAQA AAF9AQIDAAQRBRIhMUEGE1FhByJxFDKBkaEII0KxwRVS0fAkM2JyggkKFhcYGRolJicoKSo0NTY3 ODk6Q0RFRkdISUpTVFVWV1hZWmNkZWZnaGlqc3R1dnd4eXqDhIWGh4iJipKTlJWWl5iZmqKjpKWm p6ipqrKztLW2t7i5usLDxMXGx8jJytLT1NXW19jZ2uHi4+Tl5ufo6erx8vP09fb3+Pn6/8QAHwEA AwEBAQEBAQEBAQAAAAAAAAECAwQFBgcICQoL/8QAtREAAgECBAQDBAcFBAQAAQJ3AAECAxEEBSEx BhJBUQdhcRMiMoEIFEKRobHBCSMzUvAVYnLRChYkNOEl8RcYGRomJygpKjU2Nzg5OkNERUZHSElK U1RVVldYWVpjZGVmZ2hpanN0dXZ3eHl6goOEhYaHiImKkpOUlZaXmJmaoqOkpaanqKmqsrO0tba3 uLm6wsPExcbHyMnK0tPU1dbX2Nna4uPk5ebn6Onq8vP09fb3+Pn6/9oADAMBAAIRAxEAPwD3+iii gAooooAKKKKACiiigAooooAKKKKACiiigAooooAKKKKACiiigAooooAKKKKACiiigAooooAKKKKA CiiigAooooAKKKKACiiigAooooAKKKrXN7bWcXmXM8cSju7AUm0ldgk3sWKK47UfGfLR6dFkf89p QQPwXqfxx9KyU8Q65cTJFFeMZHYKqrGoGScDtXJPG007LU6I4abV3oej0tVrKO4htUS5uPPlA+aT aFz+AqzXWndHOwpKK5/xVJeW1jFd2dy8XlviQLjBDcAnIPQ4/OpqT5I8zKhHmlynQUV5qPEmsDpf N+Ma/wCFaNn40uowFvLdJgON8Z2t+I6H8DXLHH0pOz0N5YWoldHc0Vi2XijTL1gnmmGQ/wAMw28+ x6H862gQRxXVCcZq8Wc8oyjo0LRRRViCiiigAooooAKKKKACiiigAooooAKKKKACiiigAooooAKK KKACiiigAooooAKKKKACiiigAooooAKKKKACiiigAooooAKKKKACiiigAooooAKKKKACiiigAooo oAKKKKACiiigAooooAKKKKACiiigAooooAKKKKAEpaSquoX0Wn2Mt1KflQZwOrHsB7k8VLaSuwSu 7Ip61rcGkQDP7yd8+XEDyfc+grzu6upr25a4uX8yVu5HAHoB2A9KLm5mvLmS4nbdLIck54HoB7Ac Coq8PEYmVV22R6tCgoK73Cup8G6YJriTUJORCTHGMfxEDJ/AHA+prlq7LwXfRfZ5bFiFmVzIv+0p 6/kf6U8GouquYMS37PQ66iiivdPKErnfGUypoojJw0kqgD1wcn9BW9NKkETSSMERRksxwAK8413V zq96HVSsEQKxg9wTy2PfA47AVyYyqoU2urN8PTcpp9EZdFFFeGeqBAIIIBB6g1veH/EL6dKLe5kZ rM8ZPJiPYjvt9R26jvWDRWlOrKnLmiyKlNTVmeq3OpWVnAJrm7hhjYZDO4AP09ay38Z6Chx/aAf/ AK5xuw/MDFebXMIfEgGWUYGeSB6D0HJ4FVck96+qy+NLFQ5r69jzalBwdmewWOvaVqTBbW+hkc/w btrf98nB/StGvDWAbG4A46ZHT6elbWl+KdV0shRObmAdYZ2zj6N1H45HtXTUwDSvB3M+Q9ZorF0X xHY61HiJjHcKMvA/DL7j1HuP0rarglFxdmQFFFFIAooooAKKKKACiiigAooooAKKKKACiiigAooo oAKKKKACiiigAooooAKKKKACiiigAooooAKKKKACiiigAooooAKKKKACiiigAooooAKKKKACiiig AooooAKKKKACiiigAooooAKKKKACiiigArjPG15l7ayU8cyuPXso/mfwrsq8x165N1rl256K/lr7 BeP55P41xY6fLTt3OjCx5p+hnUUU6NHlcIilnJwABkmvFPUG06OR4ZVkidlkU5VlOCD6iug0/wAL Sy4e8by1/uKcsfqe1dFbaXZ2gAit0BH8RGT+Zpc1ndGM60Vpuc1bax4jlH7l5JAO7Qr/ADwK1I77 xR5fMNqT6sMH9DitzGOlLWixNVbSOZuL2ijjtRsfEF9811mVc58tGAUf8B6H6nJrInsbq2AM9vIg Pcrx+dekUhAYFWGQex5rOVSUneTuXCs4qyR5hRXaaj4btroGS3xDKeeB8pPuO34Vyd3ZT2UpinjK kdD2PuD3oTR0Qqxn6leiiimaBVW4iwS6jg9QOxq1QQCCCMg8GunC4meGqKpAmcFNWZm0Usi+UzBi AB3J4xSV99RqxqwU49TzJJxbTHJJJDKk0LtHKh3I6nBU+oP9O/Q16f4Z8RR63bGOUCO9iA8yPP3h /eX2P6dPQny6pIJ5rW4juLeRop4zlHHUH39QehB4IrPEYdVY+ZLV0e3UVkaFrVvrOnQzJJGLgr+9 hDDcjdCCM5HPTPbFa9eHKLi7MyCiiigAooooAKKKKACiiigAooooAKKKKACiiigAooooAKKKKACi iigAooooAKKKKACiiigAooooAKKKKACiiigAooooAKKKKACiiigAooooAKKKKACiiigAooooAKKK KACiiigAoooPSgBoZSSMjI6jPSlrM2Au5PDB2+YcEf5GKmW4lThh5g9Rwf8AP5VwRx8OZxnpYvkd rotSPsjdyPugmvJDI0rGVjlnJYn3Jyf516nLdxPBIuSrFSAGBB6V5lFp944VFtZiwABG0jHFc+Pq Rly8rudeEsrtjYI0knVJZViQnliCcD6Cur0+70PT4wsNwm5uC7A7j9eOBWdZeFrqUhrpxCnoOWP9 BXRWmk2VlGFjhVj3ZuSa8xs1qzi+paS4hdQyyoQRkEEc05ZEc4VgT7Gj5I16BVHoMCk+Z/VV9OhP +H86k5hTIoJUZZh2HOPr6UmJG6nYPQcn86eoCgBQAB2FBIAyeB6mgBvlL3LN9WJo8qP+4v5Unmg/ dDN7gcfmeKXc/aP/AMeFGgB5SZ4G0+qnH8qinthcRGOVUlQjBVxg/gRUmZfRPpk/4UuZB/ApHs3P 8qAOM1fRDZZmg3GLujDlfoe4rFr0surKVkQgEYIYZH5jiuO17RxZSfaLcZt37A52n0+lVF9GdVKr f3ZGLRRRVnQQ3EQkUE4B6HIyMH1qiYntmCMCYycK2c4Pof6flWoQCCD0IxUZRZoSjjIIwR7/AONe ngcyq4ZqN7xMqlKMtepRopFDAsjnLqSpPr6H8Rg0tfbQkpxUo7M89pp2ZGpMN2siEoxOVdCQysB1 BHIyP5V2Wk+O7i2URanE1yg486PAcD3XgH6jB9jXHyIXQgHDA5U+hHSpfJmFvFcNDIsUoyjlSAfo e/es6tOnNWmTZHsGnaxYarFvsrlJcD5lHDL9VPI/Gr1eHozxyrLG7RyqflkRirL9CORXXaN46nt9 sOqq08fQXEYG8D/aUcH8PyNefWwMo6w1RDieh0VDb3MN3Ak8EiyROMq6HIIqauFruSFFFFABRRRQ AUUUUAFFFFABRRRQAUUUUAFFFFABRRRQAUUUUAFFFFABRRRQAUUUUAFFFFABRRRQAUUUUAFFFFAB RRRQAUUUUAFFFFABRRRQAUUUUAFFFFABRRRQAUUUUAUJ18u5PPEnI+vAI/kfzpBVi6i82LAALKQV B/z+FUwkTDIQA5wRjBB9D714OOounU5ktGbwldEnNFR+TH2X8iR/WjyY/wC4D9ef51w6lgZUBwDu PovJo/eN2CD35P8AgP1p4AAwBgegoZlUZYgD1JxQA1Y1Byfmb1Jyf/rUO6oQCSSegAyT+FN3PJ9z 5V/vEcn6D+ppVCxsFAOWySScnjuTTAP3rdAEHvyfy6UoiUHJyxHducf4U2a4igA8xwuemepp0ciy oHXJB6EgjP50tLhYfRRRQMKKTpWbd6xHCzRQL50oODg4VT7n+gyaPUcYuTtFGn0rOur3TirxSSo2 4YZVBfI9wAcfWseaae5/4+JWdTz5a/Kn5Dr+JNNCgDAAA9BwKlzXQ64YTrJmPcWL/aZBbRu8OfkZ vlOPocGojYXQ/wCWJ/76H+Nb1FL2kjrUElY55rW4T70En4DP8qgAIZ1IIOc4Ix1FdRWZq+NsPAzu PPfoKuNRt2YnBGBeJtkSUdGwjD35IP8AMfiKhq1ejNq5/ukN+RFVa+4yOq6mG5W9jy8RFKd0A4Nb 0OsWp8HPpspDXMbeWiEHpncGz04BI/CsGo14nkHqqn+dejXw8K3LzdHcwJKK0l0W4msI7u1ZZ1YH cighlI6jB6/hUel6a+o3wgO5UXmRscqPT6k8Vrzxs3fYnnjvck0bXL3RJy1s2+FjmSBiQrepB/hb 3HXuDXpOj+ILDWoybaTEygGSBxh0z6juM9xxXk0ibJXQ/wALEfkcU+2uZ7O5jubaUxTxnKMOcZ6g juD0I71zV8LGorx0YNJ6o9torM0PVE1fSILxRtZgQ6f3WBww/MVp14zTTszMKKKKACiiigAooooA KKKKACiiigAooooAKKKKACiiigAooooAKKKKACiiigAooooAKKKKACiiigAooooAKKKKACiiigAo oooAKKKKACiiigAooooAKKKKACiiigAqtNbb23odr/z9jVmsrX9WTQ9L+3yhTCk8KSljgKryKhb8 N2fwqJ041FyyBNrYWWT7MuZxsH97OQfT/JqMXSOMoM+5YAfqc1n69c+ffrbj/VwAMR6uen5D+dZu BXzWJUadRxh0PSpYZzgpN7nRGdTndcRp7KQT+Z/wqP7TaRksZlZh3Jyf8/SsHAorn532NlhF3NaT Vxu2xR55wCxwKWTUFhiJV1knYckDge34VkUUuZl/VYGtY2hkP2m4O4nlQTn86szahbwkru3kdlGf 1rGku5pUCFyFAxgcDFQ0+bsQsM5O82a/9sJniFvxIqRNWgYjIdfcjI/SsSk6gjseKOdlvCwLl9qL 3bNFA5WAcM6nBc9wD2HuOT7DrTUBVCqAABgADAFCqFUKowAMADsKWk23ubU6cYKyCiiipLCijgDO cCmo4dAy8gjIJGMigB1Y+ryZuIEB+6CT9T0/lWtI6xoXc4UDJJ7VztzKZpWlYYywOPQdAPyrSmru 5MtEV7r/AI85s/3D/KqdW704spvdcfmQP61UPU19nw+n7KT8zzcT8QVGeLge6EfkR/jUlRt/r4/Z WP8AKvoTlOg8OakLS7NvKwEMxGCTwrdj+PT8q68IqszKqhmILEAAkjpn1rltE0Vdovr8BYxyiOQA fc57eg71vR6vYS3S28dwjyNkDGcE+mema4K2srxPPrq8rxOR1rT5bK/kZkIhlcsjDkEE5x7H2rNr vNSvdOj/ANEvz8sq5wVJBGcZyOhBFcjqNgloyyW86T20hOx1YEj2I9fet6VS6SaOmjUclaSsdL4A 1PZPPpch4fM8WfXgMP5EfjXf14naXcmn3sF7DkyQOHAH8QHBH4gkfjXs8EyXNvFPE26ORQ6kdweR XnY6nyz5lsy5LUlooorjJCiiigAooooAKKKKACiiigAooooAKKKKACiiigAooooAKKKKACiiigAo oooAKKKKACiiigAooooAKKKKACiiigAooooAKKKKACiiigAooooAKKKKACiiigBK5nxDKYmuoNUt Jb3Qby28qYRReY1ufmDFlUbirAjkZKlScAHI6auV8S21rJfxXdvqF3YatDGUWa0QSZjPO2RWBUrn kZAII4I5zEpxgrydioxcnaKOQ8IXAudHlKahNfxR3c0UNxOP3jRqwVN2QCTtA5IBNdBXL6FBdaFe z213Lc3sd832lr14guyUKFZWA4AIVcEDkgjr16L7VB/z1T86+XxFnUck7pnvUk1FJ9CamhgxODnB wfY1GZmk4hXP+2wIUf1P4fnT40EaBQSepJPUk8kmuc0GXM62tpNcOCViRnIHUgAnH6VKpJUFhgkD IznB9M1X1CE3Om3cCjJlhdAPUlSB+ppNOn+06ZaT5z5kKMT7lQT+uaq3u3JvrYtUUUVJQUUVUt7s 3V9dxRhWhtysbMDkmQjLL7YBX8SfSmk3qugm0i3RTPNj88wb184KGKZG4KTgEjrjPGafQ1Yadwop CQASSMdyTxUJdpuIiQp/5af4Dv8AXp9aQBIfOcxD7g++R/6D9T39B9an6CmoiooVRgDtWfe6iFzD Act0Zx0X2B7n+VUk27ICPU7newgQ5CnLEdz2H4fzrNk+4fw/nThxTX52j1Yf4/0rojFRVjFyuyC+ P7pV/vSAfgOT/Kq1SXbbrhEHRFLH6ngfoDUdfcZLScMKm+p52Id5hTMkXSEHBVSQcdDkY/lT6jTm WRuwwo/AZP8AOvVMC1cXU90+64leQ/7RyB9B0FRAkEEEgg5BB5BqWK0uJo2kigkdF+8yqSBUNJW2 QlbY0dS1Iajb2pcEXESsrnHDDjBHuec1nfhRRRGKirIFFLRBXo3gPUftOkPYscyWjbR7o3K/lyPw rzmtzwjqH9n+IoAxxHcjyG9iTlf1GPxrnxdPnpabrUUlc9WooorxDMKKKKACiiigAooooAKKKKAC iiigAooooAKKKKACiiigAooooAKKKKACiiigAooooAKKKKACiiigAooooAKKKKACiiigAooooAKK KKACiiigAooooAKKKKAEPSuFEhmZ5m5aRi5J+vA/AYH4V2d4xWznZeojYg/hXFQgCGMDoFH8q8fN ZO0YnpZfFe8xGmjRirOFIGeTjI9ietPVg6hlIIPQjvQQCMEA/UZpSQOvHavEPSCiiigA/nWRH9o0 cvEttJcaeWLRtCNzwgkkqV6soJJBXJAOCOM1r0VUZW0eonG+pRj1nTpSVF7CrjqkreWw/BsH9KfJ qmnxKWkv7RQOpM6jH61ZeNJQBIiuB0DgHH51GtpbowZbaFWHQiNQR+IFO8ewveMa58QxT3sGmWEh inu0Yw3c0RWM4xny9wAkYZyFGAcZyQMHGtPDV1a3BN5oNvcXTAA6hY3723nf7Ui5BDHqSN2SeK7G 7sra/gMF5bxXETEEpKoYZHQ4Pcdj1FRWOl2Om7/sdusJkxuIJJOOgJJJwMn862jWUYtRRm6bbuxb DTbTTYmW1t0iMhDOQSzMcdWYklj7k1boornbbd2apWWhD5CFtz7pCDkbjkD6Dp+lSMyqMscDOB7n sB6n2ofdtOwjd2JBx+laGh2oZpbmUl2DbY2IxjA+bA6Dnj14PNNK7sRVqckeYxtUWaC0BkBi804V CcMR3J9B2x1PfHSsQcDA6Vt+KZvM1QRDpEgGPc8n+lYldEYpLQyjNySbCmMyqdzHCqpYn0H+c0+q Ny+9hEDwTuf6A4A/HGfw9668Hh5YitGnH5inNQjchQswLsMM5LHPbPQfgMD8KdRRX6DCChFRjsjz G23dgSFUsegBJqSaxnsGWK4UCRlEhwcj5uf06fhU+l2Rv9Ut7cj93u8yX/dUgkficD8a7XUNLttS 8szhgUJIKnBIPUZ9O9ZVK3JJJ7HPUrqErHK6Zrs2m27wrCsiliy5JG0nr06jisp2LuzkAFiSQBgZ JzxXYzaLpNhbPcTRM6xjJDOTk9hjjqeK45yC7FV2qSSFznAzwM98U6bjJtxQ6UoyblESipbeMS3M URzh3VTj3IH9as6xp7aZqc1sSSgOUJ7qeh/p9RT9rFTVNvVmxRpMEjhip6gjqCOQR7g4NLRWgHsG hah/amiWl4fvugDj0YcMPzBrRrkPh9Pv0i6gJ5iuCR7BlB/nmuwr5+tDlm4mT0CiiisxBRRRQAUU UUAFFFFABRRRQAUUUUAFFFFABRRRQAUUUUAFFFFABRRRQAUUUUAFFFFABRRRQAUUUUAFFFFABRRR QAUUUUAFFFFABRRRQAUUUUAFFFFAEcsYlheNujKQfxrgllSLMMjBXjJjbdxkqcHBPB6V6BXMa9ZC C6FyijypjtcY6P2P49PqB615mZ0XOnzroduBqKM+V9TINxCo5kT8GBJ/AU0BpnDMpWNTlQRgsexI 7Adh+NSqij7qgH1AAp1eAeuFFFFIAooooAKKKKACiiigAooooAa7FVJALN0UDuTwB+JxXSWdv9ms 4oM5KqMn1Pc/nmsjS7c3F35zD91CeCejP0/QfqfatyRxFG8jcBQSfoBmtYKyucGJnd8q6HAay5k1 e6YnOHIH0HFUafNIZZpJD1Zi35nNMrdLQ2irJIZNKsMTOxwAKzl3ElmGGY5I9OMAfgB/OprphLIF z8qHIAPU/wD1qjr67JMF7Kn7aS1f5HFiKnM+VbBQSACSQABkk9qKibEsm3GUU/N6E9h/U/hXunOd p4WsRBp5vHGJLnDDPURj7o/Hkn6j0rernvDGozXCy20z7vKVSmQAQvQj37Ve1PXINMmjiZGkdhlg hAKjsee59K4Jxk5tbs82pCUqjW5m+Kzc7YAB/oueSP73bP4dPxqDRbLTdZtjaTL5F7GCVkjOPMX1 IPBI7+2DV2TxDpd5A8M6TBHBBBTP5YPX0NctDO9tcpPA5Vo2yjHqMdM/h1FFSlOpRcYvlktUdmHu o8rVjpIvCt5ZarayKyT26zKWZTggA5yQf6E1qeKtKkv7RJ7eMvPCcbVGSynqB64PP51sWc0lzZQz SwmGR1BaM9VJ/wA5/GpndURndgqKCST0AHJJr5GpmWI+sRnLWUdPU2PJXRo3KOrKw6qwII/A0ldl rHiLSJ0MQtRfMOAzDao+h6/lXHMQXJVQoJJCgkgD0yea+yweIqV4c1SHKB1fgC98nVbmzY8XEYkX P95TggfUH9K9FrxfT75tN1K2vlBPkOGYA9VwQw/In8cV7KkiyRq6EFWAII7j1rix1Plqc3czktSS iiiuMkKKKKACiiigAooooAKKKKACiiigAooooAKKKKACiiigAooooAKKKKACiiigAooooAKKKKAC iiigAooooAKKKKACiiigAooooAKKKKACiiigAooooAKiuII7mF4pUDo4wwPepaKTSaswV09Dirq1 ksbpreUlsDcjn+Jc9T7jofwPeoq6vUNOiv4grsyuhyjr1U/1FcxdWs9hL5dwvBOElA+V/T6H2/LN fPY3BSpS5oq8T2MNiVNWb1I6KKK847AooooAKKKKACiiigAoSKS4lEMI/eNyT2QdCx/oO5/Git+w to4LcMigM4DMeuTj+QHQVUVdmFer7Nabslt4Ut4EijGEQAAf579zVPXpDFotyQSCVCgj3IFaPasb xRxoze7r/Otjz4ayVziainl8tcD7x6e3vT5HCIWPQD86ou5kbc3X09K9fK8C8TVTfwrc6qtRQjpu NooqzZade6pcG3sYRJKF3HcwVVGcZJPueB1P519t7sI66JHnN9WUpGJYRocMRkn+6PX6+n/1qeqh FCqMAdBW6PBOuwqSLWJyeSROMk/iAKo3WjapZZ+0adcoB1YJvUfiuRUxrU5OykhJofol6lhqIlkI EZRlY/hkfqAPxqlcXEl3cSTynLyHJ9vb6DpUSsGJCkEjqAeR9fSrVjYXWo3AhtIWkc9ccBR6k9AP rTfLFubEoq/N1K1bmix6dZhdQ1KZCQcw26jcxI/iIHQZ6A49aXXfD6aHZWvmXBku5mO5VGFVQO3c nJHPf0rCrKpFYmm4xdkUnc6i88aTu2LOBI0B+9L8zH8BwP1ras9Zt9Z0u4VcJOIWEkRPI4PI9R/L vXL+G77TbK8lOpQLJG8e1WKbwp7jHuOM+3vWbNOiX0s1lvhjLsY8EgqpJwM/SvMqZRQl7lONnHW/ cL6lcdB9BRRVzSrSK/1S3tZpGjWVtu5QCQSDjg++BXtNqMbvZAVokMsqRjq7BR+JA/rXregK0eiW 0LvvaANAWx12MVz/AOO1wK+H7vTPEVjDcJuie4TZKo+VsEH8DgdD+teg6N/x5OO32mfH081q8zHV FJR5XoRJmjRRRXnkBRRRQAUUUUAFFFFABRRRQAUUUUAFFFFABRRRQAUUUUAFFFFABRRRQAUUUUAF FFFABRRRQAUUUUAFFFFABRRRQAUUUUAFFFFABRRRQAUUUUAFFFFABRRRQAVFNDHPE0cqK6MMFWGQ alopNJqzBXT0OcuvD0iEtZSgr18uQnj6Nzx7EGsmaOW1OLmF4fdh8v8A30Mj9a7ioZp7eIfvpY0H +2wFcFXLaVR3jozsp42pHR6nFqyuMqQw9Qcil61v3CaDOcyS2av/AH1lVW/MEGuenij+0yrbzymB W2qcg7uBnBx6kj8K8rFYGeHXM3od9HEqq7WsOopAMADJOBjJOTS1wnSFFFBIAJJAA6k8Cmk3sA6N C8iqBySBXTgYUD0GKw9GSO5kM6OrohIypBG70yPSt2tYxa3R52JmpSsugnesfxQudFdiQArqxz6Z rZqtf26XdnJA4ysg2kfWrjbmV9jnTs7nlc0pkbA4UdB6+9RdASeAOp9K6C28Fazct8ywQx4BEjy7 sg9wFB/Uius0vwVpliFe5X7bcDnfMPlH0XoPxyfevvKNTD4WkoU9TOdTmd2cFpei3+sSBbOAmMn5 p3BEaj69z7DP4da9L0LQrbQrUxwlpJZCDLK3BcgYHHYdcAdPzNawUKAAABTq5a+JlV02Ri5NhRii iucRnX+h6bqfN5ZxSN2fbhh9GGCPzqpbaVc6NF5emtFLBnPkzja3/fwDn/gQJ963KSq55WtfQLnm PjS7uLjVYjPaTWyJEFUSgYZiSThgSD26HPHSucr2yeCG5haKeJJY2GGV1yD9RXlvi7R10bWEWzUL azR70jJJAIOGAJyR1Bx057V6WDxKaVO1i4y6GLRTVkViVwVYclTwf/rj3FOr0Cwp8crQypKmQ8bB lPoQcj+VMrsfDHhP7SI7/UU/c8NHCer+hb29B378dc61WNON5A9juLeaO7s4bgAFXRZBntkZqtoW To8Dn/lrulH0Ziw/QijWJGi0xooTtknKwR47Fjtz+AJP4VeijSGFIkGERQqj0AGBXgvYxJKKKKkA ooooAKKKKACiiigAooooAKKKKACiiigAooooAKKKKACiiigAooooAKKKKACiiigAooooAKKKKACi iigAooooAKKKKACiiigAooooAKKKKACiiigAooooAKKKp6pd/YNLurvjMMLSAHuQCRQtXYDz3xD4 pvL6+lhsrqWCyjOweWdrSEEgsSOQM9MEcDJ61zLIrMWZQzE5JYZJ+pPNA+SMFjyBlifXuadXv06c KcUkjZIktbRbm5jhWNPmPJ2jgdz+VdjGixxqiKFVQAABwAKzNFsTDF9okUh5BhQR0X/69Wb/AFKH T1G/c8jAlY1HJx3PYD3P618VmteWOxXs6KvbY9WjBUqd5F36VVu9QtrIDz5QGPRAMsfoBz+PSueu NYvrjIEggQ/wxdfxY8/kBVEKBkgcnknqT9T1NdWF4cnK0q7suyMqmMS0gat1rtxMStsogTs7AFz+ HIH6msxg9zIBIzzOxAHmMWyT0GDx+lJW94TsDd6uJmAMduNxz3J4A/mfwr3ZUMNgKEpxitEccqk5 vVnbaRYLpmlwWqgAquWIGMseSfzq9RRXws5ucnJ9QCmHl1H1P9P60+mLyWb1OB9B/k1AFqzP7nb/ AHWI/qP51ZqpZn55V9wfzH/1qtV9JhZc1GLOeW4tFFFdBIUUUUAFFFFACd65nxvp5vNBedFzLaN5 wx1KgYYflk/hXT1FNEk8EkMgykilWHqDwaqEnCSkhp6niDorjDAEDkHuPcHtQEdCVckgdCRg/j/j XTaP4eCXc/2v547aZoUBHDlTjcR6YwcdyfSsS/n+0ahcTA5DSEg+2cD9AK96FVTdlsVGalKy6Far BluzCHMlx5WdoJZtvHYHOPwqvWzceIml0BdN+zIoVQpcEnIByMDHBOPX+dRWlNOPLG6LOq8MT/2j a6bEHLCyRnlJOcSElUB/4CWP4j1rrqxPC2kHSNFSOT/j4lJlm9mPb8AAPwrcrxqrTm+XYyYUUUVm IKKKKACiiigAooooAKKKKACiiigAooprOqDLMAPUnFADqKg+2W/eeL/vsU9JopPuSK30bNFhXRJR RRQMKKKKACiiigAooooAKKKKACiiigBKKKydZ1uDRYlaRWkmkJEcSkZbHU5PQDjJpxi5OyJlJRV2 a1FefXHjLVZmIhS2t1zwApdvzJA/SqA8Ua7PGSNQCAkhSkCdAcZOQf0xXUsFVaOZ4ymj1DNFeWJ4 m1uJgsmoyDP3W2IQT6H5eD7d60YfGOrxkeZ9lnHoYypP4gkfpQ8FVWwLGU3uehUVj6Lr9vrMbBVa K4QAyRN1Ge4Pce/54rYrllFxdmdMZKSuhaKKKRQUUUUAFFFFABRRRQAUUUUAJXK+PL8W+irZqcSX bhSO+wcsf5D8a6qvIfEGqHV9anuQ2YUJihHbYCefxOT9MeldOEpc9RPoiorUy3AZGDHAIIJ9q6LQ fDbXkHnXkjxSIQPKVQT90EE5BxkEEDH19KztEshf6vDE4BhQmWXPTavOD9TgfTNdrEl1cTPfW0sU STKAEkjLblGcMcEEEgnA9Md678TU05DlxNeUZcsWV7vTPs1pJN9uuSVXKgrGdzHgDG3nJIH41yeu 2ktpqzrO4eR40bIXAAxjA9gQfzrtCtwdStVvDCUw7RiIEAyDoSCTyASRjvk+lZfjO1DWdtdgfNFJ 5bHuVYcD8CB+ZrkwtKlSqqUYq7FQxNRz5ZyujjqKKK9c7xURnYIoLMxAAA5JPQV6fomlx6Vp6RKM yMA0jEckkdPoOlct4O0sz3Zv5FHlxZCg92x1/AV3dfI57jeefsIvRblpBRRRXzpQxyQpx16D604D AAHQU0/NIB2UZP17f1p9AitcalBpjLLcCTbKRGvloWO7nAwOeacviTSd6pJeJA56JODEfyYCsvxV EJdBm/vRkSLjqMEZ/nXF6hqR1CwtVlbM0RZWz/ECBg/jjB96+pyiiq9DfZmM4vmR61FPFPGJIZEk Q9GRgQfxqWvFbRLuBXurJpYdhAZ4GKkZ6ZA6j6git2x8c6rbMouRFdxjrlQjn6EcfpXoTwM18LuT ynptFYGleLdM1WRYVka3uG4EU4Clvoc4P4HNb9ccoSi7SRLVgooopAFFFFAHNX8H2fWZU/5Z3kfm AA/xrhW/MFfyNcbqvh6WzJmtQ0sHUjGWT6+o9/zrtvFqzR6I95b8T2jiVTtzhfut/wCOkn8K8/l1 zU5QVa6ZQeCFAX9QM16eD5pRvHoRGE1PmjsZ1bfhTS/7U12LeuYLbE0mRwTn5R+JGfoprEJABJzg DPHWvU/CmjHR9IUSgfapyJJvYnov0A4+uT3rfF1fZ07Ldm8nob9FFFeKZhRRRQAUUUUAFFFFABRR RQAUUUUAFVp7tITt5eTrtXr9T6Cobi6ZmMUJxg4Z+uPYep/lVdVCggZ5OSSckn1J7mtIwvuYzqW0 Rzeo+L9QTUJ4reKBIopDGQ2dzEdfm6DnOODW1Y3MGo2kd2mX3jkycspHBU+hByOK4nV0EWvX0RIB 8zzAO5DAHP5k1d8Oah9iv/s0jYguSACTwsnQH6EcH3Ar0J0I+yUoLU4FWk5tSeh2mB6fpTTGjfeR T9QKcSAMkgAetN8xP76/mK41c30HIZIv9VKR/ssSy/4j8DV63uVnBBG2RfvKT/nIqgCCMggj1BzQ dysrocOvI9x3B9j/AIGplFM0hNp+Rr0VDDKs8Qde/Y9QfQ1NWJ0p32CiiigYUUUUAFFFFABRRRQB HJIsUbO5AVRliew9a8r1LVG1nU57shlThIkPVUABH4kkk/XHavU541nhkhf7rqVP0IxXj08MlhcP HKMNETFN7Y4DfTHP0Oe1d+AUXJt7nDjXLlSQsrmOJ2HJA4Hqe364pY08uNE/ugCmSfPNGg5A+c/h 0/Xn8Klr1DzBGAZSrAEEYIPQio0LRuImJIOdjE5JA7H3Hr3FS0yRN6YBwwIKn0I6GgC/pWoHS9Vg u84jU7ZvdCQD+XB/CvVAQwyDkGvHI3EsYJUAnIZT2I4Ir0DwrqyS6Cy3EgDWI2OzH+ADKsfw4+oN ebjqentF8z0MFU19mzpKWuesfFVrf6gtokMyeZkI7YwSAT0zkdDXQda8uFSM1eLPTlFx0YtFFFWS FFFFABRRRQAUUUUAcx4z1f8As7STaxMRc3QKKR1Vf4m/I4HuRXn2m6dcapepZ2iAucbmI+WNem4+ 3oOpPA9u31zwpfa1rpumvYo7XYqKNpLqBycDpkkk5PtxxXQaVpNpo9oLe1j2jqzE5Zz6k9z/AC7V 2068KNK0NZMpOyOYvvDsejW9slk77pwYJmdgDMx+YA+gOCvHTcMdK2beeO5t45os7HUEAjBHsR2I OQR7VU8TZuLuO3DbTHGXU/3WJ+U/ht/Ws20voiZ5JdQexLykmAICFOAGOSp6kE8HHOe5rkpYuNSU oN6o5MVh5RaqJX5jT1VgLMbQ3nmRfICjJ8zPH4Yzn0Gc1l+JrqUaFPHc2hi3lQjLKHAYMCBxgjOD g4/Kp49QsIb3zZb/AO1MUIjYAFlOeVCqByeDnGTgjOBWR4iuJbuweWYFF3qsMJx8uWHJx1YgH2A4 Hcnb6xCnOMW9WzPD0KlSV0tEc0epowSyqqlnY4VVGSx9AO9X9M0i71aUrbqAqn5pG4Vf8T7V2dj4 Wt7JQRJulIw0m0ZPsD2HtW+PzWlhU4x96XY9aCTeuw/wpA9to4imULJvLMAc4z0BPTP0rcHXrVS2 tWsw2xi4bqDwR9O1clrnjfUdLu2txpAiAJ2vM+Q4HcbePwzxXxU5yrTc5bs6aOGnXnyUtTuPpSM2 0dMk8e5rgNO+JG6QR6hZqik48yEk7fcqecfQ5ru4HiniWeGQSK6grIMHIPpis5RcQxGErYd2qxsS KCASSMnninUUhIVST0FSYEE8K3Uc0LgFWQoc9ORz/SvNrJbC2vbiLU0kdEVkXZnhgcA8fp+tenoM Lz1PJ+tec66RYeJrh0jjf5g4WRdykkA9K+gyGblKdG+jVyJbFPSZbq3vo5rWKSTBwyopIYHqDjj/ AOvXUX3h+zviJEBt5CQSUAwfqOmfcVmW3ioxqEltF2j/AJ5tj9CMV0Nhex39otxGrKpJGGxkEHnp X0lRzT5rWOCtKaadrGN/witlHEz3FxK0agluABgc56GoND8X3OlyCG6aS5sc4Bc7pIh2IPVgB1B5 9D2rfuoItRtJrcSkA5VihBKkHof6iuBubeS0uZIJRh0OD6H0I9j1ohFVU1MuhJyvzbntEM0dxCk0 Lq8bqGVlOQQehqSuG8LTvpmkQ3RZjZu7CdCSfL+bAdR2A/iA4xz2Oe5GCMivHly8zUXezNWrC0UU UCIbiBLi2lgcfJIhRvoRivFpYHtZpLaT/WQuY29ypIz+OM/jXt9eTeMYfsvia9KrgOqTAeuVx+pU 134CdpOJUXqT+D9HOp6utxIp+zWhDtno0nVV/D7x/D1r1Gs/RdOTStJt7VFCsqAv/tOR8xPrk5rQ rmxFV1ZtibuLRRRWIgooooAKKKKACiiigAooooASqd3OUxFGcO+ST/dHr/QVcrKZvMnlfsW2j6Dj +eaqCu9TOpKy0EVQihQOBS0UjMFGTk5OAB1J9K23OY43xbbL/asMrLxLDwQcEMpIyCOnDCsFo5Np Cy5BHRxyPoRg5rrfF0TmwtrnaCY5tpA7BgR178gVyiyo3AYA9wTgj8DXp4d3pnDWTU7nc6Df/wBp WAaYhrqIhJc9CccMB6Ec/XI7VrYA6AV57pmpjSr9LlnHkt8kwBHKk9fcg8j2yO9eggggEHIIyCDk Eeorjr0+SXkdNKfNHXcQopORkH1HB/8Ar0fOvUBx7cH/AA/lRv5IVS2ODjAA/E0FiBkowHqMH+VY mgRztBLvRHwfvrt6j1B6ZH69PStWORZEDoQVIyCO9ZakMMggj1FOjka3csmSh5ZB+pHv7d/rUSjc 1pztozSclULBSxAzgdaoLqEoY+ZDgDkqM7gPpjn8KvpIsiB0YMpGQRVO/UBoXB+bcV/Ag/4Cs42v Zms27XRcR1kUMpBBGQRTqz7J9kzQ/wALfMvse4/UH860CQASTwKUlZ2KjK6uFGarWl5b30Cz2sqy xN0dTkGrNSmmroaaauhaKKQnApjGSypDE8sjBUQFmJ7AcmvIr6Z7+/nvwdjzuWIYZG3ooI9gAM/W ug1/xJNqSXFnbbUtGypbks+D1z0AOPQ5H1rnNsY+8QT33HNZU81pYduyuyqmX1KyV3ZENttWMuSq 7uQN2QAOgGe3f8am8xP76/mKB5QORt6Y4FKdh/hB/wCA/wD1qHxBK+kCVkseshAynowP4inZB7g0 jBCpG3Gf9n/61JiPun/jn/1qpcQPrD8SXki6T/AYnFxKOxCt+PIP8hU4u5LRJdp/dzIIpR2xuBB/ Aj8iai2wk5G0E8cEg0GItGVLEgggg89auWdUa0HTqRauTHKqtKanB3sTRTSxyiWF2jZSSrA4IOCO D261u+Er2ddZjiaaR0nVgwZiRkDIPPfgj8ay9Fs2vNXtoCm9d4aQE/KVGMk/h29TXolroun2V0bm 3tUjlIIyvQZ9B0H4V4+Eozk+dPRM9TEVIpcrWrRpUUUV7B54UUUUAFFFFABRRRQAUUUUAchqzFta us9FCKPpjP8AMmqmfc1a1UH+2bvPcoR9No/wNVa+UxTftp+p79BL2UfQPxNZ15bNqmp2WmRk4JM0 pH8KgED8yT+VaNPtGjtbqS6EYM7RiMN7A55p4at7Kpzv+mKvFuDUTZjW20yCO2t4wMDCxr1J9T/i asxmZuZAij+6vJ/E1T02EuDdSZZ2zgnsK0aTk5tyb1Z5skk7CE4qlqmlW2r2b21ygZWBwccqexB7 EVdBBBIIODjj1o69KExRk4vmi9UeI63o1xoeotaz/Mp+aOQDAdex+vqK7r4c3kk2k3NqxJW3l+TP YNzj88n8aPiFbibRo7jblo7hVUgc8jGB9T/KrfgjRbnS9Hd5wYprlw5QqCVUDAB/U+2a2crwPoMV jI4jL05/Fc6qowfMYH+EHI9z6/Sjy8/fYsPQ4A/IdakrE+eCvO/F/wDyMEn+4v8AKvQJpo4IWllc JGoJLE4AFebavLJqt3c6lFE32YME3HHAA4yOoz/WvdyCnJ4hztpbcmTSWplV1Xhq7WHSrsuRiFjI R7EZ/mK5X096miuZYIJ4UICzAK4I5IBz+FfX1Ic8bGNSHOrD47yaOeS6Sd452YsSpxkk5OfX8amv b+XUkiMsAM6ZBkRSNy9gR6g96r2d3NY3SXEJXeucblBBB6gg12+k+J7S92xThbac8AE4Vj7Ht9D+ tcGNxFXDpTp0+ZIagk7k3hlCvh+3V1IJLkhhjgseoNaWlyCwuzpzMRBIC9rnkLgfNGD7dQPQ4HAq bOe+agu7YXdu0W7Y/DRuOqOOVYe4OPwyO9fH08a1iHUaspPYpq6N2iqmnXZvbCKdl2OQQ6/3WBww /Agirde8ZBWFqHhy31LXbTUZnJW3XBh28OQ2VJPoDk47/wA92impOOqAKKKKQBRRRQAUUUUAFFFF ABRRRQAUUUUAQXUhitZHB5CnH17VnqoRQo6AYFW9Qb9yi/3pFH5c/wBKq1rTWhzVXrYKaBuct2GQ P6n+n4U7OOfSmxjESD2H8qsyM/X4DPoV4oHzKnmL9VIb+lcIQrgEgMD0yM8V6W6LIhRhlWBUj2Iw f515kFlhzEyBjGShwcHKkjkH6V3YOWjRzYhbMURxg5CKD6hRXVeGNSMlsdOdv3kQzCT1MZPT6qeP oRXJ+Y3/ADxk/T/GpILm5trqK5gjCSRNuBdh8w6FcDsRkcnvntXRWpqcbdehjTm4y8j0yKIzSCJD tVQCxHUZ6Ae55Of8at/2fb44Vs+u85/PNclL4uFuytYwpMsqq7eYxXaem3gHJHf0NRyeObw20ix6 fAs5U7HMpZQexIwCR685ry3h6z1SPRhWpJWkdRNYzR/PCwkI6q/BI+o4P4j8aiWTPyupjfurcH8P Ue4rzCz8VX8/inSbaCe+RBfie4imdnFrGUkWeJ35DR7vLZGbpuAGMAD2BXtryEMjRTRnoQQw/wAK y5pR0kaunGWsTP2bWLKWRj3U4/MdD+Io2/NuZmZvVjk/h2H4VbbT1/5ZSOntnI/I00WEp63GPon+ OafPEj2ctiO2UveAjoikk+5xgfp/Kk8QXf2HQL24BwywttPvjj9avQwpDGEQe5J6k+9ZPi23e58L 38cYy3l7gPXBz/SuavJ8kmuxVROFGVt7M868Ha+2jamkMzn7HOdrgnhG6Bvb0P8A9avXwcjIr58O ME9sV7tpDO2jWbSffMCFs+uBXl5XVlJOD6Hk5JXlOMqcuherG8Qawuk2YKqHnlO2NCcfUn2HH4kC tnNcJ46UG+sts3zMjAx+ig5Jz2zwP/1V6rhUqLlp7s97nhD3p7I5YqigB2LEDgE/0FCuGAZEJXqC AADTJQMCJAAZMgkdQO5/p+NTYAAAAAAwAO1aUcgppXqyuzGpnM7/ALuNkJvb+4fzFBZjjCdDnlhS 0Vusjw1+pi83xD7Cbn/uD/vr/wCtQWb+6P8Avr/61LUcrsAEQ4djgH0Hc/h/PFX/AGJhSf7WxI5Z d+RsJAJBwQRkdaQlMEgFTjrginKiooVRgAYFLWM8hov4ZNGsc5qr4kmW9Lv30y+jvIh5u0EFGPUH qAex9K9PtLqO8tIbmI/u5EDLnrgivInTcpKHa+Dgjjntn1Feo6C8L6DZG3z5fkqBnrkDBz75zXNH A1MJo3eJ0/XKeJV0rSNSiiirAKKKKACiiigAooooAKKKKAOZ8QQ+XfwzdpU2E+68j+Z/Ksuuq1Wz +22DovEi4dD/ALQ6D+n41yaMHQOAQCM4PUe1fO5lRcKvMtmexgqnNTt1Q6iiivOOw39OcNZR4xwC PxzViNw6kgEYJHIxyDisbTLoQyGNzhHPBPQGrwuBb3rxykBHO5CemT1FbKSsjy6tNxm0TpHlNysV Y5JI5B5PUU7bI3DOAO+0EE/ielLHwCvdSfyPNHlL2Zx9GNUYmfqd1JbeUtvHC7KclJMgY7cjOD74 NTWeoNdwFvsssTrwRJjHTOQwJBH059hVhbWBWLCNdx5JPJ/WqGo3y7Wt4sHIIYjoAeoo5rKzNIx5 7RiRP4o0mNTuugzAchFJ59BxWZc+OIVyLa1dzjgyEAZ+g5rA1HRfs6GazDtGOWhySQPVc8n3H5el ZKkMAykEEZBHQivqMvy3AYiHPFuXdEVIyg7SRpX+r3+sShJWZgTlYYwcD8Byfxrf8OWFxaW04uot gkYEKxBJGCDkdvxrmLfUbu0TbbzGMd9qgE/U4ya6fR9VkfSLi6vJN5hY84AJGAQOO5Jr25UVSgoU 4pI4sQ5tWRYuLKHT7Oe4sLNDcgErgZIPqM+nXA9K4diSxLEkkkknqT3q/JrmpSMWN3IgJzhcAD2H FbV/4ex4St9TCZuwPNnOeWVjnJ+gI/DNXGXsmlPqOlGUPiZytFGRnAIJ+tWrCza+mkhQkSCJmQAf eIwcH6810NpK7N20ldne+HLg3Gg2rE5ZFMZJPcEj+WKdea/Y2OoCzuHZWKhi4GVUnoDjkcc1ieFt RS00e/Mxwtuwkx3IIxj6kjH41kQ6Zf65HfamGjAjJdyzEEnGSBx2GOuB0r5OGVQq4qq6rtFbfMLn oGjXEYu7u3R1eOQi5iZWyCG4YA+zAn/gQraryPwxdmz8SWL7iqSOYm56hhgA/wDAgteuV21cP7C0 L3M5LUWiiisyQooooAKKKKACiiigAooooAKKKKACiiigChqZYRwsvUSZx6jBzUAIIBByDyDVrUB+ 4Rv7rqf1x/WqSDYSnYcj6H/Dp+VbQ+E5aukhx6H6GkTiNR7D+VOxng96bEcxrnqBg/UcVfQz6jq4 DWYfI1y8QDAZxIPowB/nmuq1nWo9LQRookunGUjJwAOm5j2GfxPQdyOIuLme6vjLcSmSR06kAAYP QAdAM8CuvCwlfm6HPiJJrl6hRRRXecgxUKSMQRtbkj0Pc/j/ADqRQCwB6EjNJVG4drif7Pb3clrd R5YK8QKyLwCSCPmXpypBBPUUmylqzoEuf7I+EF9qunZXULgN9onUfOJDJ5bEnqNo4HoAMV5No/iD VNCuxcafeSRMDll3Eq3swPBz71694Gtnnj1nTNWa0aC/wwt4i2CSpWQgsBjICnAJIIJ968z8U+C9 T8MX0iSQSzWOSYrtEJVl7biPusOhBxz0yK8uPuylGW57lGUZQPW/DPxL07WNMZ71WtruIgSRohcM fVcZOPr09TXR2XiXSr+QRR3QSUnAjmUoT9M9fwzXiHhK3Ntp0106Eea4AOOSo4z9MmulZQwKsAQe oIyK2+pQavezOKpi5QnyrY9eklSFC8jqijqzHAqjDrOl3spt4b+2lkORsWRST+Ga8c8Q397OltaT 3UktvEpKI5zjnuepx0BOSBxWGpKkMpIIOQQcEH1B7V87jMW8PWdJxvY+wy3I447Cqvz25uljofEG lPo+r3FqVIjyWhJHDIeRj6dD7ivWtH1C3ls7O2EgM5tY5ceqkYyPxFc1oU9l4u8JbNWIaezykkuc MuBkOD2yOvbINQeErWR9ZjaOSR4LZSA0mM7DkKvHH/6jXNQXsal4aqZ8tQyipgcVVi9v1O/kdIo2 kdgqKMsT0AryrUr9tT1Ge9ckLIcID/DGPuj24yT7k11vjTUvJtE02NvnuBmTB5EYPI/E8fTNcJL+ 8YQ9QRl/p6fiePpmvqsDSsnUfyObG1LvkQRAuTMQQX+6D2UdPz6/jUtFFegcAUUUUAIxCqWJAAGS T2FQwtvkdnBWQgYB7L2x/X3rV07Q7nWorloflSAZGekj8EJnsMck9sj3rJkJmYCIEOh5dhjae4I7 nsRUKcW2k9VuW4SUU3syxRTFEoYBmRlPU4wR/MGn1ZAV2Hge+4udPc/dPnxj2Jww/A4P/Aq4+ruj 3Zsdas7jOFEgjf02t8pz9CQfwrDE0+em11N8PPkqJ9z1WiiivDPaCiiigAooooAKKKKACiiigBMV y2taf9knN1GP3EjfvBjhGPf6E9fc5rqaztck8vR7jB5Zdg+rcf1rmxdKNSk1Lob4ecoVFy9Tl6Kh 2SRf6s+Yg6Kx5A9j3+h/OnxyrIDtOCOqngj6ivlj3R3epmuHkiWOTDBfuk9R/wDWqvI3lxM+M7QT jPXFOHIzQTKClqyzDfTwjCsGHowzgelWDq83ZE/z+NZ9HempMh0IN3aLM1/cTAgvtU9lGKrVHbsX hUscnkEn2JFSUm31LjCMNEgrntZ0wQE3dumIyczIo4B/vAenr+frXQ0hwASxGMc56YrqwWMqYSqq kPmTUpqpGzOIq0l6yac9mFyryiRjnGQBjHtz3ov7VbS6IiUi2kyYiRgDHUD2Gcj2+lVa/RaFaGJp RqR2Z484csnGR6H4fg8M6nEDb2ESzr9+KbLsPcZJyPeuqMSGIxlFMZG3bjjHpj0ry7SILSS60gWs 0ov2uP32MgKoOeD9B2POTmvTbi8trUxi4uI4jIdqb2A3H0FeViIvm0v8zGS1PP8AxfqNm039nWNv AixtmV0QD5h/CMDt39+OxrN8NHGtRjHWNh+n/wBap/F9iLPXpXQDyrgCVcdMnhv1GfxqHwyAdaQn qEYj8q9KmoqhoFT+Gy74h0cr5l9bAhDzMg9c/eA/mPxrnknljjeJZpFikI3qrEBgPUdD+Nek1hT+ F7Wa6eUSvGjHIjQDAPfBPb2qadVJWkc1HEJK0jl9Q+ypcudNaYxKAyNL97cOc/mBivYrO4W7soLh T8ssauPoQDXIW2g6dbYItxIw5zKdx/Lp+lb/AIdYLpZt+n2aV4QPQA5X/wAdK1y4uSklboaqrGbs jYooorhKCiiigAooooAKKKKACiiigAooooAKKKKAILqMy20iAZJHH1HT9azeZFWRcBsZGehz1BrY rLkTybh4/wCEnev0J5/I5/MVpTfQwrR6jVYOuRn0IPUH0NVrm5jsIZp522wqCxPuO31PGPc1OyHO 5CA3fPQ+x/xrk/FF8813HZAFUiAkkAOcsc7R9AMn6keldFKHPJJHLOXLFtmLNPLdTyXM5zLKdzDs PRR7AYA+nvTKKK9aKSVkcDbbuwoo5JwBzTLUXWp3DW2k2j3sqHDsrBYYj/tyHIH+6AW9qUpxgryd iowlN2ih/fHeuc8Q67a2clstvLHPfQzbvKVshVKkNuI6AggY6kgccVr+O/DWq6L4ZivbjUnaSS4E csVpmOKNSDxn7zcgDJIHPQV5iqKiBUUKo6ADArm+sKa9076GBd+aZ3Ok+LIbudYblDaTEjZIrnaT 2APBU+mfzrrZdX1SeDyJdQuGi6FcgE/UgAkfU141Xe+HLm+udJQTIBtO1JXydygDBx3I5GeOAKuD U37yu0LE0PYrmg7Jmw8QKLGu1UBGQB2BzgenSpe9IM4GSCcckDFUL+7nt7clYSCeN4OQPf1z9a1q TVOLk9kcdGlKtUjTjuzM1acTXpCnIQbM+p7/AK/yqh2oPI5PJ70d6/O8XXdetKo+rP2rLsIsHhYU F0RraLqEFmSk0k8aXBCzFACAoORwD83PNex6IdLtdEFzZTK1qVMjz5zux1J+mMY7YrwfFdNoOqzD w/c6UM+W84kY5/hxyv4kAn2z612ZU+esqXfY8HiTBxhQlik9VuaGo6g1/ez38wKiQ5VT1VBwq/XH 6k1ViQhSzjDscsPT0H4Dj86Q/vZgvVIyCfduw/Dr9cVLX3MYqKSWyPzCUnJtvdhRRRVEhT4YZbm4 it4FDTSsFQHpk9z7AZJ9gaZW1aI2j6G2qn5by8/c2mRyiEZL49wMj2C+prKrU5Vpu9jSlDmeuyJ9 S1s6FbJo+jOu+IlZbgqCTIeTgHjOckk8DoOnHPAYB5JJJJJOSSTkknuSeSaiUA3BAziNQBk55PJJ PrgD8zUtFKkoLze7HUqOb8goJABPQDk0UVqZCAhgCDkEZBHQikkJETFSQwGVI657frio2BgJdRmM nLKP4fcf1H410fh7w/cX91BdzxGOyRhIC/BlI5XA67c4OT2GOc5rKrUjCLcmaUqcpySiehJny13f ewM/Wn0UV4J7oUUUUAFFFFABRRRQAUUUUAJWH4kk/c20I6vIWP0UE/zxW5XL69Lv1RUzkRRD8Cx/ +sK48dPloS8zpwkeaqjOpjxJJgsoyOjDgj6HqKfQa+YPbJodIubnS2ninR87wVkXHQkdR9B2qtGd 0SH1UGuj0A7tJdPSSQfmSf61zVv/AMe8f+6B+ld2KpQhThKOlzmoVJSnOMnsS0UUVwnSLaWV7LbB 4rR5E3MAysvZiO5BqZbC/bpYzfiVA/U1ueHW3aXt/uyuP/Hif61rGvcpZdSnCMm9zzKuNnGbjZHB Si5jmeFoRG6EZDt6jIIx1H4+tQzRP5Zd2LlCG24wpHcY78etb/iGIJeQTD+NGQ/UEEf1rKrzMTSV Gq4LY7qFR1IKRU1C0GoWTRhgG4aNj0DDkH6HofYmuSGeQVKsCQQeoI4IP0Ndlb8RmPvGSv4Dp+hF YOuWhhuxdKP3cxAbA6MBwfxA/Me9e5w/jfZ1Pq83o9vU58XSuudC+Hr6303VlvLncVijYoqjJZjx j26nk1X1XVLjV717m4bk8IgPyovYD+p7mqVFfX+zjzc/U87zHM7uFDOzBRhQSSAPQZ6Cug8L2M32 k3rKBCFKqT1YnHT2HPNM0fw81yq3F4GSE8rH0Lj1PoP1NdaqqihVUKoGAAMAD0FYVaqtyxOSvXVu WItFFFcpwhUHhjVY7zWNThiz5eI3X/aIyrHHbotT1TsbVbDxTBeRkKl2rQSr23EbgR9SpB9z71M0 nB3N6DSlr1OxooorhOwKKKKACiiigAooooAKKKKACiiigAooooASqt5EZIg6DMkZ3Aeo7j8f8Kr6 lrlhpS4ubgCQjKxL8zt9FHOPfpXLXnjW9l3LZ20cC9nlO9seuBgD8zW1KjUnrFGNWrTirSZ0qEOM qcjOK86upzd31zcnI82ViB6AHAH5AU64v726ZjPe3D7uoD7QT9FwKpfZoeyAe4JB/nXp4eg6buzy 6tVTVkS0UiIEGAWIz3JOPzpehyK6jAwdcuLj7Ld3LHyrCxKu6vkfaypDMmeCEIyvHLE4HAwfcdJk sJtJtZdLEIsJIw0HkqFTYeRgDGBXg9/pug6RNHcy2d1PI0hkhtI/MlUuTk7U5VTk98AE8V0fgbxP c+F4oLDxAW8nU7iSSGOJS7WsrEuY8KCSuOcjo2c8EEeXi6cpO56eFnFKx6nrekW2uaNc6bdDMU6F cjqp7MPcHB/CvnPxF4P1jwzOy31szQA/JcxgmJh65/hPscH69a+mwysoIIIPQ0jKrqQwBB6g965K dRwO9M+VNIsG1O/jhUEx5BkYcgD6+pxXpaIsaKiKFRQAABwAOlb3iyeM6stnBHHHFbLlgigAuwBJ IHooA/E1hV7GHu4KXc8nGVeepZbIKCAQQQCCMEEZBoorY4zm9Ts/sk4ZOInyVHoe4qlkCurnt0uQ gdQyq2SD3GCKVYYIgSsUaAdTtAx+NfP4nIo1qznGXKmfaYHi6eHw0aU4c0l1ucnW9psL2dmSy4ll YbUIwQcYAP6k+1WPKtnvUdVjdyDkjBxgcH2Papo/3shlPKjIT6dz+P8AIe9bZfk6wtV1JSv2ObOO JZY/DqhGPKuo+NBGgUEnHJJ6knqadRRXtnygUUUAMzKqKXdiFVR1Yk4AHuSaTdgSu7I0dD0o6xqS wMD9njw859Vzwv8AwIj8gfarni+6E+tLbp/q7SILjsGbk/oF/Ouv0HSl0jTVhJDTMd8zj+JiOfwH Qewrze5uDeXlxdH/AJbStIPYEnH6AVxUp+2rOXRHdVh7Kio9WVoeWlb1kI/IAf0NS1HD0k/66N/O pK7jhYUUUUAFdH4W137DMun3Tf6LI2InJ/1TE8Kf9knp6E46HjnKRgGBUgEEYIPcVnVpRqxcWaU6 jpyUkex0VzHhPWje25srly1zAoKsTzInYn3HQ/ge9dNXhTg4ScWe1CanFSQtFFFSWFFFFABRRRQA UUUUAIa4y9l87UrqTsZSo/4CAv8AMGuvmkEUDyNwqKSa4eMkxqzfeb5j9Tyf1NeTms7QjE9DL4+8 5D6KKK8I9Q3vDjf6HcD0nP6gH+tc7CMRhfQkfkSK3vDR4vF/21P5qP8ACsQDDSD/AKaOP/HjXpYp 3w1NnHQVq00LRRRXmnYb/hs/6HOPSY/yB/rW3WF4aP7q6X/pqD+ait2vqsG/3ETwcSrVZGJ4kTNp BJj7kw5+oI/mRWBXSeIRnSWPpJGf/HhXN14+aJe2TPSwL/dEP3Ln2kH6j/EfyouraO7tngl+6w6j qCOQR7g80txxGG7q6n9QD+hNS1wQk4SUo6NHW0mrM4mWJ4JpIZQBJG21sdD3BHsRg/jU9jdpZ3Am e2ScgfKHJAB9ff8AGtbXbAyxC7iUmSIYcAcsnU/iOo9sisDIIBBBB5BHev0PLsZHGUFJ7rc8evS5 JNdGdFL4m1AwiZLWNImYqHILAkDJGcgZqr/wk2pf34hz/wA8xWv4WSHUNHvLC4QMgcNjuAR1B7EE cGqY8HXpv3i8xFtgciY8kj0AHOfXt71isdh4VJ062jicypQXQsaFrN5f3zw3DIyiMsNqgEEEen1r oq5jT7aHT/FklpA7uixlSXxknAJ6e9dPW05RlaUdmcOIiozskQXF3DaCMzuEWRtoY9AcE8nsOKS9 3C1M0YzJAVmQepUhsfiAR+Nc/wCLZ8yW0APQFyPrwP5GqGma9PYYikBntxxsJ5UegPp7Hj6VaouU OZFxotxU47nrEUqTQpKhyjqGU+oPIqSsTwrdrd+H4ChYiMtEN3UBWIGfwArbrypLlk0zpCiiikAU UUUAFFFFABRRRQAUUUUAFFFFAHlOrg/21fFySxmYEnqcHA/AAAAVTq7rP/Ibvv8Aru1Uq+gpfAvQ 8GfxMKKKKsgKKKKAGTGYQSCAoJSp2eZnbntnHOPpWVY6LMmpf2nqV8by8CFIlVNkUKnqEXJOTjBJ OSK2KKlxTepSm0ml1Llnq1/Y4FtcyIo/hJyv5HIrbtvGt5GALiCKYDuuVP8AUVzFFZzoU57ouNac dmSXEpuLuedicyyNJk9eSSB+AwPwqOiitUkkkjNtttsKKKKYhGOFJ44BPNbrNo+laJHLEUudXliU jdiQwswySF6LjJxxknGc1z85IiKr95vlX6n/AAGT+FORFRQigBQMAAYFZVKfPbWyX4mtOpyX0vch 3ByIER1BHzFhjC/zyen5mrGAAAAAAMADtTVQIXOSSxySf0H0FOrUybCiiigArqfB2k+dMdVmXMcZ KwA926M34cgfj7VyUzERhVOGYhQfTPU/gMmrIurvyUh+2XXlIoVUEpVQAMAYBArGtCU48sXY2ozj CXNJXPT9WuRa6ReT7gpSF2B9wDXlCFVRFDDgAYyOwoaJGOWUMfV+T+uaDBCRgxR/98iow+H9lfW9 y69f2ttLDYsiSZT13bh9CB/UGpagVFiuAFUKGUgAdMg5/kTU9dJzMKKKKACiiigCW2uprG6iu4P9 bC24Dsw6FT7EZH5HtXqtpcxXlrFcwtujlUOp9jXktdp4Iv8Afaz6ex5hbzI/9xjn9Gz+Yrz8dTvF TW53YKpZ8jOuooorzD0wooooAKKKKACiiigDN12Qx6ROAcGQCMf8CIH9a5f6dK3fEjkRW0f96Qsf wU4/XFYXavn80neqo9j18DG1O/cKKKK8w7TV8OOBdXieqIw/8eH+FZR/1kvp5smP++jTrGZ9NuXm gQMGXa0ZOOPY9jk/Q+3WoIJBIvJ+fJLqRggkknj6nrXZVqxlh4QT1RhCm1VlLo7EtFFFcZubXhs/ PeD3Q/pj+ldBXO+Gz/pF4P8AZQ/+hV0NfT4F/wCzxPDxf8ZmT4ibGlY/vSoP/Hgf6Vzlb/iU/wCh 24/6bj/0FqwK8rNHeskehgf4XzIrn/j3f6D+YqU96iuf+PZ/oP5ipT3rzTsCuR1K0FlfvEoxEw8y MdgCeQPof0Irrqydft/MsROBloG3E/7J4b+h/CvXyXFvD4pJvSWhz4mnzQJvBSTfbbl1X9z5YVif 72cgD3xmu07jjNcNZ+JodM02O1tLMs4GXeRsAsepwOT7cjgCtbRPFC30gt7wJDOx/dsPut6Dnof5 /Wu/NMHia1WWI5fdR5JzunXLHxQs0oIaSZgwPYnIx+eBXbda4nXIjp/iSZlGAJBMv0JB/nmuo1W/ Wx06ScEb2GIx6sRx+XX8K+gTVSnCUVukceJg3JWOS1e5S71qV3J8pXEeV5O0HBI9+pqnefZhdyfZ DIbfP7vzPvYx3/HNTaZp7aldmASqh2lixGSceg7nmobqA2t3LAzBjGxUkdDjvXbFJSST2Wx0xsrR XQ7/AOHzZ0O4X+7dN+qqf611orkvh+m3Qp2P8d0x/JVH9K60V4mI/iy9SXuFFFFZCCiiigAooooA KKKKACiiigAooooA8p1dl/te9bcMGduScDqap1LdgvdziRRkyNuBGRnJyKq+Qg+4WT2RiB+XSvoI K0UvI8CTvJsloqLypO07/iqn+lKIRkF3dyDkbjwD9BgVZJJRRRQAUUUUAFFFFABRRRQAUUUUAFFF FABRRRQAUUUUANZNzIxJBUkj3yMU6iigAooooARkD7c5ypBBHqKWiigAorbsdOgfTluwWMg3BhkE HnGMduKI9ASVmAuXG3BOYsAgjIwc81j7aKdmX7N2TRiUV0y+HrQLhpJWb1BA/TFZV5pZgjaaFzJE rbWyuCp9T6j3pxrRk7A6ckrmdWt4YuPs/iS09JQ0R/EZH6qPzrJq1pbFNZ09h1FzGPwJwf0JoqpO nJPsOi7TTPV6glu4oiVLZb+6oyaqy3Ly5CMUj9RwW/HsP1+lVw8SDaGUD0BzXixp33PWlVS2LTXk zH5FRB/tZJ/IYH60wz3B/wCWuPog/rmohKh/iA+vH86HLlR5RTPqckfpVqK7GTnJ9STzZ8/69/wC /wCFKJ7hek2f95Qf5YqAKw+8A5/3yo/ICl2r/wA+yH6SsD/Kiy7DUn3LaXxHE67P9sHK/j6fy96u Zz0OayR9nx+8injP95XLAfkf5irlgFW32rMJVBO09MD0rOSRtCTejZk+JM+daHHHz8++B/8AXrHF dVqtl9us2RcCRTujJ6Bh/Q9D7GuU5DMrKUdThlbqp9D/AI9+tfOZnSkqnP0Z7mCmnDl7C0UUV5h2 hUckSuQeVcdGHBH+I9jxUlFAEAkZCFmABzgOPun/AAPsfwNT0hAIIIBBGCCMiodjw8pl4/7hPI+h PX6H8DQM3fDh/wBOuh/0zQ/q1dJXMeGnEl7cOpyvlqM4xg5PB9/aunNfTZf/ALvE8PGfxmc94kfM lpF2yz/iAB/7NWNWjr7btVRf7sI/Vj/gKzq8bHy5sQ/I9LCK1FEVz/x6yf7tS96huebdh64H5kCp j3riOkKZLGs0MkTfddSp+hGP60+iqjJxaa3QNXVjhgGUbXGHUlWHuDg/qKWtDW7cQaiZFHyTrux6 MMA/mCD+dZ9fpmDrrEUI1F1R4lSDjJpk1zdT3bK08rSMqBFLdQBnAz3696mv9Rl1DyQ42rEgVQDk E4GSfc4qnRW6hFWstjNpOzfQUEqQVJBHQg4IpCSSckknkk0UVQz0P4eljo90D90XR2+3yqT+tdeK 5H4fMP7FulyMi6bI+qrXXCvBxH8WXqZPcKKKKxEFFFFABRRRQAUUUUAFFFFABRRRQBx+seD5Z7mW 6sbld0jFmim4GT/dYDI+hB+ornZ9C1e2bbJps7ehiAkB/EHP5gV6jRXVDF1IK26OWeEpzd9jyldJ 1NzhdMvM+8eB+ZIFSx6DqsjlPsZjIxkzSKoGenQkn8BXqOKz71NkyzfwMArH0OeD+p/StFjZt2Mp YOEVc4eXwxfRKCJIpScZ25UAntz1+tV20LUlOPsrH3BBruiMgg8g8EU0Fk4YEgdGAz+Y9fetFipr cxdCLZxC6BqTjP2Yj6sBUq+GtRYElI19i4rtFIIyCCPUGloeKmCw8Thj4f1MEj7Pn3DCl/4R7U8Z 8gfTeK7iij63MPq8ThG0LUhk/ZWOPQg/1qvJp17ECXtZVA7lTXodIzBfvED2JprFy6oTw8ejPNME HBBB9DRXoNzZ212pElqr5HUgA/getYN54XYZa0Y467HYE/ga2hioy0ehlKhJbHOUVLcW01rKY5o2 Rx2I6/T1qKulNNXRi01owooopgFFFFABRRRQAUUUUAFFFFAF+w1N7ONoSoeJzyCcEE8Eg/0ret7y 2kU2jS7Jdu0g8EjHGD0PBrmYrO5nhaaGB5EQ4Yrzg4zyBzV46bc6hcl4l2x7AzSNwq4HIPqeOgrm qxg5as2g5W2OkkYwQZwz7QAe5I6EmnsqupVlBVgQwI6g9c1z+ianJ5yWszl1YYQnkg+mfQ1vSozq ArlCCDkAHOD0rnlFxdmapqSOLuoDbXcsJ/gYgfTt+mKfpsRn1ayiABzMCc9MKCx/lT9UkWXU7hlI I3YBHfAA/pVrw5bNPq6z4Yx2wJJAJyxBAH5Ek/h611zlaldmEI3nodkIgcGQ7z7jgfQdqkAA6AD6 DFM3OeiAD1Y/0GaX956IfxI/pXlneOppjQnO0Z9Rx/KjLjqgP0b/ABo3qOuV+ox+vSgNA2EdHcfj n+dJhx0cH6r/AIGn9qKQDdzD7y5Hqpz+nWk4L743KyDuOv0I7j60+kZVb7wBx0PcUBqW4LwSERyA JJ6dm9wap6xpf2xPPgUC5QcDoHH90n+R7H6mmtHlcZ3Drhv6HqKmgvWiYRzklOzMeV+vqPfqO/rW FbDxqRcWdVHEShJM5hW3A9RgkEEYII6gjsR6UtdHqWkx3oM0JEVxjhuoYdgw7/0rnHSSGVopkMcq 8lT6eoPce4/Q18visHOg/I+goYiNVeYUUUVxnQFFFFACxSy20vnW8hjk7ns3sw7j9R2Iro9O1mK8 xDMPKnP8JPDe6nv/ADrm6ayhxgjjr+Pr7H3rsw2MnQduhz1sPCr6l3VX36xcnPC7FH4Ln+tVKijZ jPKJHZ3yG3NySCMDJ74xj8KlrCtP2lRyXU1pw5IqPYiuP9QfYr/MVLUVwMwlf7xA/MgVLWRoFFFF AjK1+DzdP84DLQNv/wCAnhv0OfwrnK7Wbb5Mm9dybTuHqMcj8q4+6tHsLua0kzugcpk9SOoP4gg/ jX2XDeIcqcqL6bHnYyKUlLuRUUUV9KcQUUUUAdl8PrxEur2yY4aQLKnvgbWH4fL+dd/Xitlez6de xXlqwE0RJAPRgeCp9iOPbg9q9b0nU4NX0+K7tydrcMp6ow6qfcf54NeRjaTjPnWzM5I0KKKK4iQo oooAKKKKACiiigAooooAKKKKACiiigAprqrqVYAqRgg96dRQBmS20kHKBpI+2OWX/Efr9ajVlcZU gj27f4VrVBLawzHcVw395eD+daKfcxlS/lM8opOSOfUcH8xSbWHRyfZhn/69WGsplPySq4/21wfz HH6VGYbkdYM+6uOfzxVqS7mThJdCP5/RD+JH9KX956IPxJp/lz4z9mkx9V/xpNsp/wCXeX8gP607 onlfYZtY/ecn2AwP8acFVegAPr3p6wXL9Igg/wBth/IZ/nUy2BJ/eTMfZBtH+P60uZFKnJlfB96K t/2fbd0J+rE/1qCa1aEb4izoOqk5IHsepx6GkppjdOSVzP1LTotRtjG4ww5Rh1B/wrhrq1lsrl4J RhlPUdCOxFeiAggEEEEZBHeuc8WQLst5wMNkoT6jGRXZhqjUuV7M5K0E1zdTl6KKK9E4wooooAKK KKACiiigAooooA3vDVvercm5iX/RwCrAn75HQD3B79BV6P8Ate8tb61nxGc7RI2Ao7kZHJJBAzzX KB2UEqzKcdiRWtrmpfbXgijkLRxxqWweCxAJ+uOn51yzpNz9TohUShbsVrSB7fWYIWK7llAJVgw9 eCPauhvrt7K1mkd0JPEQAwSSPr25NYelvbWQN5NIGkGVSJRlge5Pp6fjVS9vZL2YzSkBQDtXPCj/ AD1NNwc5a9CFJRjpuyFI5Z5khhXfNKwVB6k9z7Dkk+gNd/pdgtlZpa2y+ZtOXkPAZj1JPqT2GcDA 7Vl+FNCkw2o3IZFlTbEhBDbScknuM8cegrslVUUKoAA6AVx4rEKUuWOyO3DYdpc0imti5wXmx7Ko /rmnfYT2mbPuoP8ASrtFcfPI7PZxMx4ZYsll3L/eXP6jqPwzUYIIyCCD3ByDWtVaa0RyXT5H9QOv 1HeqU+5nKl1RR2DOVyp9jj9OlGXXqNw9QMH8u/4Urbo22SjaxOB6H6H+nWlrS5i1bQRWDjKkEe1L TWRWOSMH1HB/OgBx0IYe/B/PpQIdSFQwwwBHoaTeB94FT7jj8+lO6jI6UbD3EhMlqAIWyg/gYkj8 D1H6iluUtNUQRTqY5hyh6MD/ALJ6H/ORRSFFcbWUMCehGRUVKcZpqRpTqyg1ZnMO5huZLeQ/MjlA +MBz/Q+35VJTCFmEhYBhJIzYPcFjj+lR7mt+HJaPsx5K/X1Hv+frXxdRJTaW1z6uF3FX3J6KAQQC CCD0IorMoZK/loWAySQFHqTwBSqCFAZtxA5OMZNMfm4iU9AGb8RgD+ZqWgCKX5ZYnH97afoR/iBU tRXP+pJ9CpH5ipe9AEVx91fd1H6ipahk+aeJfTLH8Bj+ZqagYUUUUCGS5MTKOrDaPqTj+tR+PdME Vxb6lGuBJ+5lI7kDKn64BH5VYjXdPAuMkzJ/6ED/AEroPE9oLzw3fR4yyxGRP95fmH6ivocik6cn PzPNx0veijyaikyCAR0IyPpS19scYUUUUAFbXhvxA2g3j71Z7ObHmqvJU9A4Hc44I7gDHIwcWipq QjOLjIGrqx7ZBNHcwpNC6vG6hlZTkEHoamryLRdfvNDl/cHzbdjl7d2IUn1U87T9Bg9x3rudP8aa Teqomm+xyngpcEKPwbofzz7V41bCzpva6M3Fo6SimI6SIHRlZSOCpyCKfXMSFFFFABRRRQAUUUUA FFFFABRRRQAUUUUAFFFFABRRRQAUUUUAFFFFABSGlqpc3flHy4xukIzycBfcmhJt6CbstSnwJZQP uiQ4/Qn9Sao6lo51pPJE7RNENysACNx4GR3GAehB6VcQ/wACZlfqQvOSeSSeg59a0bWDyYiGILsd zH3P9O1bubhqtzmjDneq0PLr/T7vS5RHewmPJwsg5Rvo3r7HB9qrV67JFHNG0ciK6MMMrDIP1rnb vwTp0oJtZJrVuwVtyD/gLZ49hiuunjla1RfM56mCd7wZwlFbtz4P1eA/uhDdL6o+xvybj9azJtM1 G3JE2nXSY7iIuPzXIrsjXpy2kcsqM47oq0U/yJ8gfZrjJ6DyHz/KmurxZEkUyEdniYfzFXzR7kck uwlFIHB6Bj9EP+FKA5xtimbPTETH+Qo5l3Dll2CirC6fqDD5dOvSPUW7D+Yq3D4c1mcArp7ID3ld Vx9Rkn9Kl1qa3aKVKb2RmUV00Hge/cZnvbeL2jQyH8yR/KtS18EafFzdSz3R9GbYv5Lj9awljKUd tTaOEqS3OJt7e4vJDHaW8twwOCI1yAfc9B+JFdZo/g5klS51NkO0hltl5XI6bj3wecdM9zXWQQRW 0KwwRJHGowqqMAD2FS1xVcZOatHRHZSwkIO71YtFFFch1hRRRQAUUUUAMdFkQqyhlPUEVSks5E5h IZf7jHkfQ/4/nWhRTUmiZQT3Mjd821gVb+6wwf8A6/4U3y8ElG2knJB5B/Dt+FaskSSrtkUMPeqz WOP9XIR7MNw/Pr+taKa6mEqTWxT8wqMOu31I5H/1vxoCowyhA90P+HFWPslwO0Z/4ER/Q002Eztk iND/AHgTn+lXzRI5JEOHHRwfqv8AhTZHlSNnzHhVJJ57DNW/sEqqAJwx77k6/kRVPU4JoNLunaRM CMjAU5ORjqTWdSpFQb8jSFKTml5nPQAiCP12jP5U+jGBgdBxRXxLep9YiDY0JJiGVPJj9Pcen06f SpUdZFDKeOnuD6EdjTqieI7jJGQsnfPRvYj+vUUgB8i4ibHBDKfboR/I1LUccoclSCrjqp7e49R7 1JQBFc827AdWwo+pIAqWoJWHnIGyET5mJBwD0AJ6DuefSpgysMhgR6g5FVZ2AiHN23oqAfiST/Sp qht+UMmOZDu/DoP0A/OpqlgFFFFAE+nx+bqtoo7OXPsAD/Uj866u7TfZzoAW3RsMDvkVz/h+Pfqc snaOIAf8CP8A9jXT19HlkeWjfuzx8dK9W3Y8Miz5Meeu0A/XFOrpPF2gy6dqEt9BCxspj5jMoyIm P3gR2BPIPTJI44rm6+wpVFUgmjBO6CiiitBhRRRQAUUUUAPhlktmDW8skDDkGJyp/Qituz8Y63aE brlLlAMbZ0Gcf7y4Ofc5rBoqJ0oT+JA0j0Kx8f2MqqL63mtn7lB5ifgRz+lbNp4l0e+fZb6hCX/u OSjH6BsE15JSEBhhgCPQjIrklgKb2dieRHtf2y2yB9oiyeg3ikS8tnuTapPG06pvMYYEhc4yR9a8 WitRPOsEFt5szdI44wzH8AOnueK9H8IeGpNFSW6ulRbmcBdiYIRRzgkdST1xxwPrXJXw0KUb812S 0kdXRRRXISFFFFABRRRQAUUUUAFFFFABRRRQAUUUUAFFFFABUL28MjbniRj6lQamooE0NVFRdqqF A7AYp1FFAwooooAKMUUUAGKTApaKADA9KTApaKACiiigAooooAKKKKACiiigAooooAKKKKACiiig AooooAKKKKAErK8QH/iUSDsXQH/voVq1HPCk8LwyKGRwQQe4rOpBzg4rqVTlyzUn0OKoq9daNeWr ExKbiIdCCA4HuDgH65z7VSMU69be5Ht5Lf0FfMVMNVg7NHuwrU5q6YlFSJaXchwlncE+pTaPzYir kWhX0vMjRQD3Jdvy4H6mnDC1pu0YhKvTjvIg03Tk1K6l37gsUeAynBDMe30A6e9TPoeoISqiGUdA wcrke4wcfma3dPsU0+3MSMWYtuZm6sf84/KrtexDL6bpqM1qeZPGTU24vQzdJ0/7DakSbWmkO6Q+ /oPYDikvtKtpracxWluZyjbCYx97HHOPWtOlrtVGChyWOZ1JOXNc4KPCrtAIKfKVPBXHGCOxp+a6 u60q0vDulhAftIpKt+YqmPDdsOtxcn/gYH8hXjVMrqc3uvQ9OGOg17y1MDr0p0EM12+y2iaQ5wW6 Iv1bp+Ayfaujj0DT0xuiaUjvKxb9OlaMcaRoERQqjgAcVpSyp3vUfyIqY9WtBFPTNOXTrbbnfKx3 O+MZP09Kv0UV68IKEVGOx5spOT5mIVDAgjIPrXH6j4BtJ3eWwuGtWYkiMqGjB9AOCB7A4HYV2VJW 0KkqbvF2BOx5ZP4N12AnbbRTgd4ZRz/31is+bRNWtwTLpd2oHUiPdj/vkmvZKMV1Rx9Rb6j5meHO GjOJEdCP76Ff5gUzzYx1dR9SBXueAaY0UbjDIpHoRmtFmD6xHznh6ujfddT9CDTgQRkEEeoOa9ll 0nTZ23TWFrI3q8Kk/qKifw/o8jbm0uyLepgX/CrWYLrEOc8d3rkgEEjqBzj8qmhtri4BMFtcSgHB McLMAfTIFez29rBaxCK3hjiQdFjUKPyFT4qHmD6RDnPJYfCuuTorrpzKrdDLIqEe5Gcj8s+1dFp3 w/jXa+p3bSHqYYMqv4t1P4YruKKwnjKslvYTkylY6ZZ6ZD5VlbRwoeSFHJPqT1P1NXaKK5W29WSF FFFABRRRQAUUUUAFFFFABRRRQAUUUUAFFFFABRRRQAUUUUAFFFFABRRRQAUUUUAFFFFABRRRQAUU UUAFFFFABRRRQAUUUUAFFFFABRRRQAUUUUAFFFFABRRRQAUUUUAFGKKKACiiigAooooAKKKKACii igAooooAKKKKACiiigAooooAKKY7LGjOxwqgkn0FcdbeOZ7m+0yU6JPDompTfZ7W/mmCvIzKWRvK wSEbaQCSDyDgA0AdpRRmopZUijd3PCKWb2AFAEtFcQfiVpF9pV/d6FHPqUtra/bPL8p4hNErAPsY rhmUE5A74BxWtpXiL+2/EN5bWIil0y2tYJPtIJJeWUFwoPTAj2se/wA4oA6GiiigAooooAKKKKAC iiigAooooAKKKKACiiigAooooAKKKKACiiigAooooAKKKKACiiigAooooAKKKKACoLlp1tpTbIjz hCY1kJVS2OASASBnHODU9FAHC+HfEXiSbxzfeHtej0tfJsEu1NgJOCz7dpZzz0PYVc8T+ItTh8Qa b4a0FLb+072OS4knulLR20KYBYqpBYknAGQMjms6x/5Lpqv/AGA4P/Rppt6RY/HXTLichY77Q5bW AtxukSUSMo99pzigDS8N+IdUk8Raj4a19LX+0rSFLqKe1VkjuYGOAwViSpDDBGSMniupnnhtbeSe eVIoo1LPI7BVUAckk8AYrhLfF78dryaA7o7DQUt5yOdsjzF1U+h2gmuk8X6Enibwrf6M90bUXaBB MBna24EZGRkZABHcHFAEGleO/C2taiun6brlpcXbZ2RI/LYBJ25GDgA9M9Km1nxl4c8PXKW+raxa Wk7jIjkf5sHoSByB7niuctNb8R6HrmjaT4n0/SZ4LyU29pe6aWUo4QkbomGQCAQSpwPxxXN+DY/F U+teLZdOl0Bb06vMl1/aFvK9wFGBGMqw/d7QNvGOtAHrS6lYvpo1Fby3NiU80XIkHl7MZ3bs4xjv msnSPG/hrXr42Wl61aXV0AW8qN8kgdSOOR7jNea+IPD954c8DWlhq1zZyabceJ4pr5LNWWCC2dgW jwxJCh+cZ4yK9jWGBUi8uKIeWuIsKAFGMcegx6dqAMbUfHPhfSdT/s6/12xt7vIBjklAKk/3j0X8 SK0r3V9O05YGvb2C3W4YrE0rhQ52lsAn2BP4V598NINMuPhdftqywtNNPdnWDKBkuHbd5me4XB56 DFc5pVq2p+A/hhb6tF5yNqhASUZDRqspjyD1G0Lx0I9qAPVtF8X+H/EVxLb6Rq9reTRDLxxPlsdM gdSORyOOetGr+MfDug3kdpqus2dpcSAFY5ZACAeASOw9zgVgeJ4ki+JngWaNVWV3vIWZRjcnkE7T 6gEAgdqq/D6OCbxF45e9RG1NtYeOXeAW+zbR5QOf4SM47GgDX8K+KW1Cw8Q32qXdvHa6fq1zbRzE hEWFCu0k5weD1q7o/jjwzr199i0vWrW6ucFvKRjuIHUgEDI+lee+E/Dtl4l+HnifRtOu47W1k8QT mzk2hkwjo0Y25wynaBjuK6fT9e8Qab4p0nQ/FGm6W736yiyvtOZsBo03MGRxlcr3BIzgd+ADrtY1 ay0PSp9S1CeOC2gXLPIwUZzgDJ7kkAfWvI18c+I9T8F3/iWx8V6OJ7a2+1S6TDYCRoASQEZzJnOO px1B4r17VgG0i8DAEeQ/BGf4TXl8qKP2aNwVQToy5IABPSgD0LUvE+kaDp9tc61qVtZidRs81wC5 wCdo6nGR0BxmnWHinQtT0mfVLLVbWextwWmmSQFYgBk7u64HPNc7resakuuaHoOiW+nDUZ7J7n7X fozLDGu0EIqkFmJI4yMAZOe2R4W+3RfGPWrS/u9PuJ30iJ7n7BAYkLiQhd6lmJYK3UnoQMUAbvgb 4iaX4u0203XlnHq8wkZ7GKTLKFZgDg84KgH8aueEvEN5r174jhukhRNN1WSzh8tSCUVVILZJyeTy MD2rM+EMcf8AwrPSWCJ5ga4UnHIInkGCav8Ag3Sf7MvvE8n2u1n+2axLcYt5NxiBVflcfwsMHI9x QB1tFFFABRRRQAUUUUAFFFFABRRRQAUUUUAFFFFABUFzdW9nCZrmaOGJeryMFA/E1PRQBy934qeT ULXTtKsZJbi8WRobi6DQwfIASckbm6ggKMEA8jrW7YQT21lDDdXTXU6r88zIF3t34HQc8DnAA5J5 OH4kZYvEXhOYkA/2jJFk9MNbS8fUkDFaGsJrzND/AGLPpsQwRL9shkkPbBXaw6c5B6+ooA0LwZsb gf8ATNv5GvKLaHXzoPg3Urx7KLR9Pm05be2RTI04kVYvNkYkBSvmEqoBweSTgV6Jb2OsJot5Bfan Fd30yv5cqQeQkZK4CgAscA85JJ5PsKwdO8N67dWml6bq8llaaTpfkbILR2kkumhxsZ3YAIu5VbaA TxgtjIIBn2Fhc+M/FeupruJ9N0a6NvYwq7Rq0pxJvbaQSyqUUZzjJPU1m+GvC2s3GtR3l5p95p2o izuYtV1K4mWQ3k0oAURhWP7tMZH3QAAAM5NepxW8MDSGGFIzK5eTYoG5iACxx1OAOT6VPQBw1h4b 0zwBpCak88kkOmaR9kaMLxJhzIzAE/edzjHTJFaXgTw7/wAI14XhtZIY4rqd2ublIwAqyuclVxwF UYUeyipdYs7jV/EGm2TwuNNtSL2eQjCyyKcRR5zzhsuf91fWuioAKKKKACiiigAooooAKKKKACii igAooooAKKKKACiiigAooooAKKKKACiiigAooooAKKKKACiiigAooooAKimiS4gkhkXdG6lWHTIP BFS0UAcWnwp8ExyB10NAwxhvPlzwcjnd09q39b8PaT4js1tdWskuYkcSJklWRh0ZWUgqfcEVq0UA ZWh+HdJ8OWj22k2SW0buZHIJZnY92ZiWY+5JqfVdKsdb0yfTtSt1uLOcASRMSAwBBHQg9QD+FXqK AOb0jwL4c0G/W+0/Ttl0i7UllmkmaMHghTIx2jHpil1nwN4c1++F9qGmq92F2+dFLJC7D0ZkYFh7 HNdHRQBj2nhjRbHQ30WDTYBprhhJbsNyvuOTu3E5JPc1S0bwH4b8P6gt9punGG4jRkjZriWQIpxk KGYhQcDoBXS0UAcvqPw88K6tqUt/e6PHJcSsGlKyOiykdC6qwVj9Qa17jRtPu2sGmtUJ0+QS2oXK iJgpUEAYHQkY6Vo0UAUbnSrK9v7K9uIA9zYsz20hJBjLLtYjtyDjmsrWfA/hvX78X+paWk10E2NI sjxl1HRW2kbh7NkduldHRQBz8ngzw8+jXWkHS4Rp91P9olgQsqmTIO4YIxyoxjAGBTdF8E+HvD96 bzTtPCXRTZ50s0kzqp7BnYlR7DFdFRQBHJGk0TxOoZHUqw9QetZx8OaS3hz/AIR82SnS/JEH2fc2 Ng7Zzn9c1q0UAYmt+FNE8RRW0WqWCzi2OYGDtG8fAB2upDDoMgHnjNJpHhLQtBuRc6XpsVtN5PkG RCxZk3bsEk8nccknJPc1uUUAYFl4M8Pabrj6zZaXDb37li0sZZQS33jtB25Prir+n6RYaXLeSWVs sLXs5ubggk75CACxyeDgDpWhRQAUUUUAFFFFABRRRQAUUUUAFFFFABRRRQAUUUUAFFFFAGH4m0ef WLK0FpIkd1aX0F3E0mQvyOCwOATyhYfjW5RRQAUUUUAFFFFABRRRQAUUUUAFFFFABRRRQAUUUUAF FFFABRRRQAUUUUAFFFFABRRRQAUUUUAFFFFABRRRQAUUUUAFFFFABRRRQAUUUUAFFFFABRRRQAUU UUAFFFFABRRRQAUUUUAFFFFABRRRQAUUUUAFFFFABRRRQAUUUUAFFFFABRRRQAUUUUAFFFFABRRR QAUUUUAFFFFABRRRQAUUUUAFFFFABRRRQAUUUUAFFFFABRRRQAUUUUAFFFFABRRRQAUUUUAFFFFA BRRRQAUUUUAFFFFABRRRQAUUUUAFFFFABRRRQAUUUUAFFFFABRRRQAUUUUAFFFFABRRRQAUUUUAF FFFABRRRQAUUUUAFFFFABRRRQAUUUUAFFFFABRRRQAUUUUAFFFFABRRRQAUUUUAFFFFABRRRQAUU UUAFFFFABRRRQAUUUUAFFFFAH//Z "
       id="image3047"
       x="17.228598"
       y="143.49785" />
  </g>
  <g
     inkscape:groupmode="layer"
     id="layer5"
     inkscape:label="body"
     style="display:inline;opacity:0.61400003">
    <path
       style="display:inline;fill:#69aae2;fill-opacity:1;stroke:#000000;stroke-width:0.99999994px;stroke-linecap:round;stroke-linejoin:bevel;stroke-opacity:1"
       d="m 266.29883,757.00586 c -10.1356,-0.12207 -19.66743,1.98356 -21.26367,9.62305 -1.01267,0.37304 -2.66431,3.10927 -2.81055,5.02148 -0.23059,3.01519 1.1,5.60705 3.17383,8.49805 -15.08969,31.8085 -34.09808,74.31822 -40.21485,77.61133 -0.17533,-2.78003 -6.39819,-3.69277 -14.29101,-0.42188 -2.14508,0.5404 -1.31265,3.9449 -2.05122,4.07057 0.15711,-0.2623 0.89834,-3.74625 0.20161,-5.61549 -2.6541,-7.12082 -10.66436,-8.91468 -10.87305,-10.16211 20.72259,-14.60104 7.16563,-27.97618 -7.45703,-25.10156 -3.02537,-2.67126 -9.38533,-9.48612 -18.57227,-7.42578 0.99032,-7.08182 -45.46022,-12.50315 -61.974604,44.14453 l 5.128906,-0.17774 c -62.940718,4.2593 -47.059982,63.12342 7.808598,44.67188 0,0 -0.70987,1.75527 1.77734,2.6582 0.12503,0.0454 0.14,0.0608 0.18359,0.084 0.0211,-9.6e-4 0.004,-0.006 0.0352,-0.006 6.7617,0.0684 51.86557,-0.29271 62.89453,1.52343 19.21486,3.16388 25.20094,15.08506 31.29492,29.36328 2.1962,10.13322 108.23246,37.29006 134.25196,-26.9375 3.648,-9.00487 3.13753,-31.85084 -21.81641,-60.24023 -1.78821,-2.03441 -6.209,-6.48662 -8.46289,-9.23438 3.01424,3.36938 5.65972,5.96265 7.63086,8.0625 25.23794,-4.64562 -16.82848,-72.44387 -23.30274,-87.23437 -5.16039,-1.2365 -13.40777,-2.68044 -21.29101,-2.77539 z M 105.06445,904.48438 c -0.29499,0.0133 0.21714,0.11544 0,0 z m 169.17969,-79.51563 c 4.40805,5.08622 1.97869,2.45922 4.38281,5.45117 -15.8038,11.12663 -19.7888,31.98029 -19.90429,43.28516 -5.47653,-0.42523 -9.35037,-0.0132 -15.05664,1.40625 1.72534,-7.13701 31.25506,-49.75576 30.57812,-50.14258 z m -73.02539,39.66602 -3.42187,7.26953 -5.13086,1.71093 v -5.3457 z"
       id="path83"
       inkscape:connector-curvature="0"
       sodipodi:nodetypes="ccsccccccccccccccccscccccccccccccccccc"
       transform="scale(0.26458333)" />
    <path
       style="fill:none;stroke:#000000;stroke-width:0.26458332px;stroke-linecap:round;stroke-linejoin:bevel;stroke-opacity:1"
       d="m 18.444188,234.5387 c 2.067759,1.89627 5.203816,1.06116 7.128736,1.01839"
       id="path108"
       inkscape:connector-curvature="0" />
    <path
       style="fill:none;stroke:#000000;stroke-width:0.26458332px;stroke-linecap:round;stroke-linejoin:bevel;stroke-opacity:1"
       d="m 31.174073,226.0521 c 4.015165,-4.40951 10.76062,-3.82931 6.591252,-7.07215"
       id="path112"
       inkscape:connector-curvature="0"
       sodipodi:nodetypes="cc" />
    <path
       style="fill:none;stroke:#000000;stroke-width:0.26458332px;stroke-linecap:round;stroke-linejoin:bevel;stroke-opacity:1"
       d="m 38.698849,217.90498 c 2.030106,1.5679 2.247146,1.09924 1.701296,0.20701 -0.389817,-0.80102 -0.677542,-1.70697 -0.146273,-2.97836"
       id="path114"
       inkscape:connector-curvature="0"
       sodipodi:nodetypes="ccc" />
    <path
       style="fill:none;stroke:#000000;stroke-width:0.26458332px;stroke-linecap:round;stroke-linejoin:bevel;stroke-opacity:1"
       d="m 32.560217,224.80741 c 1.214951,3.6745 3.689075,4.25037 7.468198,4.92222"
       id="path116"
       inkscape:connector-curvature="0" />
    <path
       style="fill:none;stroke:#000000;stroke-width:0.26458332px;stroke-linecap:round;stroke-linejoin:bevel;stroke-opacity:1"
       d="m 38.868581,221.12989 c 2.648802,-0.77031 3.669115,1.57663 3.91177,2.39823 -1.705257,2.66543 -2.655738,4.75854 -2.751936,6.20151"
       id="path118"
       inkscape:connector-curvature="0"
       sodipodi:nodetypes="ccc" />
    <path
       style="fill:none;stroke:#000000;stroke-width:0.26458332px;stroke-linecap:round;stroke-linejoin:bevel;stroke-opacity:1"
       d="m 36.605491,222.45946 c -0.05316,2.76649 1.821121,4.14608 4.469603,3.73409"
       id="path120"
       inkscape:connector-curvature="0"
       sodipodi:nodetypes="cc" />
    <path
       style="fill:none;stroke:#000000;stroke-width:0.26458332px;stroke-linecap:round;stroke-linejoin:bevel;stroke-opacity:1"
       d="m 40.481034,218.89508 c 1.845413,2.638 4.576594,1.19448 4.686751,-1.79671"
       id="path122"
       inkscape:connector-curvature="0"
       sodipodi:nodetypes="cc" />
    <path
       style="fill:none;stroke:#000000;stroke-width:0.26499999;stroke-linecap:round;stroke-linejoin:bevel;stroke-miterlimit:4;stroke-dasharray:none;stroke-opacity:1"
       d="m 44.158556,219.63059 c -2.514958,-0.50112 -3.938055,-3.93178 -1.697318,-4.27159"
       id="path124"
       inkscape:connector-curvature="0"
       sodipodi:nodetypes="cc" />
    <path
       style="fill:none;stroke:#000000;stroke-width:0.26458332px;stroke-linecap:round;stroke-linejoin:bevel;stroke-opacity:1"
       d="m 34.795018,228.08889 c -0.337789,1.04096 -1.47496,1.55021 -2.008492,1.81047"
       id="path126"
       inkscape:connector-curvature="0" />
    <path
       style="fill:none;stroke:#000000;stroke-width:0.26458332px;stroke-linecap:round;stroke-linejoin:bevel;stroke-opacity:1"
       d="m 33.437163,226.61788 c -0.168844,1.43734 -0.703149,1.31499 -1.555875,1.61245"
       id="path128"
       inkscape:connector-curvature="0" />
    <path
       style="fill:none;stroke:#000000;stroke-width:0.26458332px;stroke-linecap:round;stroke-linejoin:bevel;stroke-opacity:1"
       d="m 32.786526,225.76922 c -0.517967,1.25678 -1.241174,0.90563 -2.008494,0.82037"
       id="path130"
       inkscape:connector-curvature="0" />
    <path
       style="fill:none;stroke:#000000;stroke-width:0.26458332px;stroke-linecap:round;stroke-linejoin:bevel;stroke-opacity:1"
       d="m 40.990228,215.10441 c 0.490109,-0.67108 0.141444,-1.44176 0.141444,-1.78219"
       id="path132"
       inkscape:connector-curvature="0" />
    <path
       style="fill:none;stroke:#000000;stroke-width:0.26458332px;stroke-linecap:round;stroke-linejoin:bevel;stroke-opacity:1"
       d="m 39.94355,213.23028 c 0.46664,0.54787 0.769665,1.07627 0.799153,1.73975"
       id="path136"
       inkscape:connector-curvature="0" />
    <path
       style="fill:none;stroke:#000000;stroke-width:0.26458332px;stroke-linecap:round;stroke-linejoin:bevel;stroke-opacity:1"
       d="m 39.370703,213.75362 c 0.597731,0.36302 0.972024,0.72481 0.883169,1.38001"
       id="path138"
       inkscape:connector-curvature="0" />
    <path
       style="fill:none;stroke:#000000;stroke-width:0.26458332px;stroke-linecap:butt;stroke-linejoin:miter;stroke-opacity:1"
       d="m 53.239127,228.76794 c 1.620488,-0.223 1.466069,-0.71097 1.049031,-1.81901"
       id="path945"
       inkscape:connector-curvature="0" />
    <path
       style="fill:none;stroke:#000000;stroke-width:0.26458332px;stroke-linecap:butt;stroke-linejoin:miter;stroke-opacity:1"
       d="m 64.469967,231.53987 c -0.333265,0.58253 -0.866773,1.60711 -0.86016,2.77046"
       id="path949"
       inkscape:connector-curvature="0"
       sodipodi:nodetypes="cc" />
    <path
       style="fill:none;stroke:#000000;stroke-width:0.26458332px;stroke-linecap:butt;stroke-linejoin:miter;stroke-opacity:1"
       d="m 68.453703,231.1678 c 0.966959,-0.0149 1.975061,-0.0594 3.217346,-0.038"
       id="path951"
       inkscape:connector-curvature="0"
       sodipodi:nodetypes="cc" />
    <path
       style="fill:none;stroke:#000000;stroke-width:0.26458332px;stroke-linecap:butt;stroke-linejoin:miter;stroke-opacity:1"
       d="M 72.899806,233.69004 C 70.907443,229.01851 70.567621,218.259 77.284545,218.69706"
       id="path953"
       inkscape:connector-curvature="0" />
  </g>
  <g
     inkscape:groupmode="layer"
     id="layer3"
     inkscape:label="hair"
     style="display:inline">
    <g
       inkscape:export-ydpi="288.84"
       inkscape:export-xdpi="288.84"
       style="fill:#ff0000;stroke:#ffaaaa"
       id="g137"
       transform="matrix(1.7307218,0,0,1.7307218,-102.82263,-304.47554)">
      <path
         sodipodi:nodetypes="csc"
         inkscape:connector-curvature="0"
         id="path2133"
         d="m 107.72321,277.7281 c 1.08116,-0.97584 3.00077,-1.16052 3.9113,-0.59414 2.20653,1.37253 1.06643,6.41712 -3.9935,9.07215"
         style="fill:#ff0000;stroke:#ffaaaa;stroke-width:0.26458332px;stroke-linecap:butt;stroke-linejoin:miter;stroke-opacity:1" />
      <path
         sodipodi:nodetypes="csc"
         inkscape:connector-curvature="0"
         id="path2133-3"
         d="m 107.72321,277.7281 c -1.08115,-0.97584 -3.00076,-1.16052 -3.91129,-0.59414 -2.20653,1.37253 -1.06643,6.41712 3.9935,9.07215"
         style="fill:#ff0000;stroke:#ffaaaa;stroke-width:0.26458332px;stroke-linecap:butt;stroke-linejoin:miter;stroke-opacity:1" />
    </g>
    <path
       style="fill:none;stroke:#000000;stroke-width:0.26458332px;stroke-linecap:round;stroke-linejoin:round;stroke-opacity:1"
       d="m 22.322648,226.99916 c -7.022332,-9.93213 -4.059255,-23.19144 6.981972,-24.74745 8.557176,-1.20593 10.052857,2.45504 13.137301,6.54166 0.942324,1.2485 4.247883,3.99184 5.130164,1.86732 0.477764,-1.15045 0.233499,-2.6767 -1.639256,-2.66739 1.767971,-1.28298 3.669696,0.99078 3.998825,2.53414 0.271535,1.27328 -0.49444,2.72585 -2.159139,3.25468 -2.963241,0.94133 -8.649021,-3.34679 -10.439012,-2.43837 -1.865917,0.94696 -1.353776,2.53856 -1.635462,2.82025 -3.74199,0.18989 -6.280732,2.89653 -8.491038,5.4256 -1.74677,1.99868 -2.506706,3.96008 -3.350552,7.22408 0,0 -0.551641,-0.1259 -1.533803,0.18548 z"
       id="path7207"
       inkscape:connector-curvature="0"
       sodipodi:nodetypes="cssscasscacc" />
    <path
       style="fill:none;stroke:#000000;stroke-width:0.26458332px;stroke-linecap:butt;stroke-linejoin:miter;stroke-opacity:1"
       d="m 24.946727,223.62353 c -4.60956,-2.18496 -5.348696,-5.79279 -6.452892,-8.19645"
       id="path7209"
       inkscape:connector-curvature="0"
       sodipodi:nodetypes="cc" />
    <path
       style="fill:none;stroke:#000000;stroke-width:0.26458332px;stroke-linecap:butt;stroke-linejoin:miter;stroke-opacity:1"
       d="m 33.953908,214.36096 c 0.351343,-5.64416 4.812301,-5.59058 8.32103,-1.77508"
       id="path7213"
       inkscape:connector-curvature="0"
       sodipodi:nodetypes="cc" />
    <path
       style="fill:none;stroke:#000000;stroke-width:0.26458332px;stroke-linecap:butt;stroke-linejoin:miter;stroke-opacity:1"
       d="m 25.673416,221.87388 c -3.536827,-4.10985 -2.42793,-20.57798 14.905706,-13.80756 0.538523,0.21035 1.557687,0.35184 0.748813,-0.74497"
       id="path7211"
       inkscape:connector-curvature="0"
       sodipodi:nodetypes="csc" />
    <path
       style="fill:none;stroke:#000000;stroke-width:0.26458332px;stroke-linecap:butt;stroke-linejoin:miter;stroke-opacity:1"
       d="m 24.579207,239.47853 c -0.45885,4.03335 7.725392,6.87144 11.660677,6.62924 7.463548,-0.0705 11.261704,-3.21294 12.850536,1.29186 0.541471,1.53523 -1.643528,3.58295 -2.345733,4.28352 11.106449,-1.80542 3.058163,-12.04019 -3.43361,-12.06862 -5.275558,-0.0231 -13.436348,-0.25663 -18.73187,-0.136"
       id="path55"
       inkscape:connector-curvature="0"
       sodipodi:nodetypes="ccscsc" />
    <path
       style="fill:none;stroke:#000000;stroke-width:0.26458332px;stroke-linecap:butt;stroke-linejoin:miter;stroke-opacity:1"
       d="m 27.672855,239.37654 c 3.988636,6.95226 14.401329,1.73503 20.465674,1.86979"
       id="path79"
       inkscape:connector-curvature="0" />
  </g>
  <g
     inkscape:groupmode="layer"
     id="layer4"
     inkscape:label="horn"
     style="display:inline;opacity:0.65116279">
    <path
       style="fill:#69aae2;fill-opacity:1;stroke:#000000;stroke-width:0.26458332px;stroke-linecap:round;stroke-linejoin:round;stroke-opacity:1"
       d="m 29.576638,219.89676 c 0,0 -4.232518,-16.55611 -2.583706,-17.30403 1.41084,-0.88391 9.756891,14.85631 9.756891,14.85631"
       id="path7455"
       inkscape:connector-curvature="0"
       sodipodi:nodetypes="ccc" />
  </g>
</svg>
